%YAML 1.1
%TAG !u! tag:unity3d.com,2011:
--- !u!74 &7400000
AnimationClip:
  m_ObjectHideFlags: 0
  m_CorrespondingSourceObject: {fileID: 0}
  m_PrefabInstance: {fileID: 0}
  m_PrefabAsset: {fileID: 0}
  m_Name: BejucoRunning
  serializedVersion: 6
  m_Legacy: 0
  m_Compressed: 0
  m_UseHighQualityCurve: 1
  m_RotationCurves: []
  m_CompressedRotationCurves: []
  m_EulerCurves: []
  m_PositionCurves: []
  m_ScaleCurves: []
  m_FloatCurves:
  - curve:
      serializedVersion: 2
      m_Curve:
      - serializedVersion: 3
        time: 0
        value: 2.88
        inSlope: 0
        outSlope: 0
        tangentMode: 136
        weightedMode: 0
        inWeight: 0.33333334
        outWeight: 0.33333334
      - serializedVersion: 3
        time: 0.020833334
        value: 2.82
        inSlope: -3.840002
        outSlope: -3.840002
        tangentMode: 136
        weightedMode: 0
        inWeight: 0.33333334
        outWeight: 0.33333334
      - serializedVersion: 3
        time: 0.041666668
        value: 2.72
        inSlope: 0
        outSlope: 0
        tangentMode: 136
        weightedMode: 0
        inWeight: 0.33333334
        outWeight: 0.33333334
      m_PreInfinity: 2
      m_PostInfinity: 2
      m_RotationOrder: 4
    attribute: m_Size.y
    path: HurtBox
    classID: 70
    script: {fileID: 0}
  - curve:
      serializedVersion: 2
      m_Curve:
      - serializedVersion: 3
        time: 0
        value: 0.39
        inSlope: 0
        outSlope: 0
        tangentMode: 136
        weightedMode: 0
        inWeight: 0
        outWeight: 0
      m_PreInfinity: 2
      m_PostInfinity: 2
      m_RotationOrder: 4
    attribute: groundCheckRadius
    path: 
    classID: 114
    script: {fileID: 11500000, guid: 0e10b6895424c48ee8b99bd4d1c99309, type: 3}
  m_PPtrCurves:
  - curve:
    - time: 0
      value: {fileID: 1956193000493473712, guid: e4d4dfe77b8ef4c61ad4d9d177a32155,
        type: 3}
    - time: 0.020833334
      value: {fileID: 2296867045291214600, guid: e4d4dfe77b8ef4c61ad4d9d177a32155,
        type: 3}
    - time: 0.041666668
      value: {fileID: 666292444532443193, guid: e4d4dfe77b8ef4c61ad4d9d177a32155,
        type: 3}
    - time: 0.0625
      value: {fileID: -3145203423131686437, guid: e4d4dfe77b8ef4c61ad4d9d177a32155,
        type: 3}
    - time: 0.083333336
      value: {fileID: 8779053722703331554, guid: e4d4dfe77b8ef4c61ad4d9d177a32155,
        type: 3}
    - time: 0.104166664
      value: {fileID: -2249471272480064291, guid: e4d4dfe77b8ef4c61ad4d9d177a32155,
        type: 3}
    - time: 0.125
      value: {fileID: 5291476836604725011, guid: e4d4dfe77b8ef4c61ad4d9d177a32155,
        type: 3}
    - time: 0.14583333
      value: {fileID: -8074378305030771746, guid: e4d4dfe77b8ef4c61ad4d9d177a32155,
        type: 3}
    - time: 0.16666667
      value: {fileID: 2745398108400033396, guid: e4d4dfe77b8ef4c61ad4d9d177a32155,
        type: 3}
    - time: 0.1875
      value: {fileID: -2447125919246053042, guid: e4d4dfe77b8ef4c61ad4d9d177a32155,
        type: 3}
    - time: 0.20833333
      value: {fileID: -8380777425856824677, guid: e4d4dfe77b8ef4c61ad4d9d177a32155,
        type: 3}
    - time: 0.22916667
      value: {fileID: -6446665189557778643, guid: e4d4dfe77b8ef4c61ad4d9d177a32155,
        type: 3}
    - time: 0.25
      value: {fileID: 7666973119170326531, guid: e4d4dfe77b8ef4c61ad4d9d177a32155,
        type: 3}
    - time: 0.27083334
      value: {fileID: -4100812937600942747, guid: e4d4dfe77b8ef4c61ad4d9d177a32155,
        type: 3}
    - time: 0.29166666
      value: {fileID: 6562504642230252652, guid: e4d4dfe77b8ef4c61ad4d9d177a32155,
        type: 3}
    - time: 0.3125
      value: {fileID: 8129294504031825136, guid: e4d4dfe77b8ef4c61ad4d9d177a32155,
        type: 3}
    - time: 0.33333334
      value: {fileID: 183050406801637800, guid: e4d4dfe77b8ef4c61ad4d9d177a32155,
        type: 3}
    - time: 0.35416666
      value: {fileID: -4795896107713086767, guid: e4d4dfe77b8ef4c61ad4d9d177a32155,
        type: 3}
    - time: 0.375
      value: {fileID: 6256684313060318096, guid: e4d4dfe77b8ef4c61ad4d9d177a32155,
        type: 3}
    - time: 0.39583334
      value: {fileID: -8459936824935070012, guid: e4d4dfe77b8ef4c61ad4d9d177a32155,
        type: 3}
    - time: 0.41666666
      value: {fileID: -8737659049004476007, guid: e4d4dfe77b8ef4c61ad4d9d177a32155,
        type: 3}
    - time: 0.4375
      value: {fileID: 6744282964674211799, guid: e4d4dfe77b8ef4c61ad4d9d177a32155,
        type: 3}
    - time: 0.45833334
      value: {fileID: -2660013216376298007, guid: e4d4dfe77b8ef4c61ad4d9d177a32155,
        type: 3}
    - time: 0.47916666
      value: {fileID: -6256830412612344871, guid: e4d4dfe77b8ef4c61ad4d9d177a32155,
        type: 3}
    attribute: m_Sprite
    path: 
    classID: 212
    script: {fileID: 0}
  m_SampleRate: 48
  m_WrapMode: 0
  m_Bounds:
    m_Center: {x: 0, y: 0, z: 0}
    m_Extent: {x: 0, y: 0, z: 0}
  m_ClipBindingConstant:
    genericBindings:
    - serializedVersion: 2
      path: 428682174
      attribute: 2368279999
      script: {fileID: 0}
      typeID: 70
      customType: 0
      isPPtrCurve: 0
    - serializedVersion: 2
      path: 0
      attribute: 0
      script: {fileID: 0}
      typeID: 212
      customType: 23
      isPPtrCurve: 1
    - serializedVersion: 2
      path: 0
      attribute: 2764840004
      script: {fileID: 11500000, guid: 0e10b6895424c48ee8b99bd4d1c99309, type: 3}
      typeID: 114
      customType: 0
      isPPtrCurve: 0
    pptrCurveMapping:
    - {fileID: 1956193000493473712, guid: e4d4dfe77b8ef4c61ad4d9d177a32155, type: 3}
    - {fileID: 2296867045291214600, guid: e4d4dfe77b8ef4c61ad4d9d177a32155, type: 3}
    - {fileID: 666292444532443193, guid: e4d4dfe77b8ef4c61ad4d9d177a32155, type: 3}
    - {fileID: -3145203423131686437, guid: e4d4dfe77b8ef4c61ad4d9d177a32155, type: 3}
    - {fileID: 8779053722703331554, guid: e4d4dfe77b8ef4c61ad4d9d177a32155, type: 3}
    - {fileID: -2249471272480064291, guid: e4d4dfe77b8ef4c61ad4d9d177a32155, type: 3}
    - {fileID: 5291476836604725011, guid: e4d4dfe77b8ef4c61ad4d9d177a32155, type: 3}
    - {fileID: -8074378305030771746, guid: e4d4dfe77b8ef4c61ad4d9d177a32155, type: 3}
    - {fileID: 2745398108400033396, guid: e4d4dfe77b8ef4c61ad4d9d177a32155, type: 3}
    - {fileID: -2447125919246053042, guid: e4d4dfe77b8ef4c61ad4d9d177a32155, type: 3}
    - {fileID: -8380777425856824677, guid: e4d4dfe77b8ef4c61ad4d9d177a32155, type: 3}
    - {fileID: -6446665189557778643, guid: e4d4dfe77b8ef4c61ad4d9d177a32155, type: 3}
    - {fileID: 7666973119170326531, guid: e4d4dfe77b8ef4c61ad4d9d177a32155, type: 3}
    - {fileID: -4100812937600942747, guid: e4d4dfe77b8ef4c61ad4d9d177a32155, type: 3}
    - {fileID: 6562504642230252652, guid: e4d4dfe77b8ef4c61ad4d9d177a32155, type: 3}
    - {fileID: 8129294504031825136, guid: e4d4dfe77b8ef4c61ad4d9d177a32155, type: 3}
    - {fileID: 183050406801637800, guid: e4d4dfe77b8ef4c61ad4d9d177a32155, type: 3}
    - {fileID: -4795896107713086767, guid: e4d4dfe77b8ef4c61ad4d9d177a32155, type: 3}
    - {fileID: 6256684313060318096, guid: e4d4dfe77b8ef4c61ad4d9d177a32155, type: 3}
    - {fileID: -8459936824935070012, guid: e4d4dfe77b8ef4c61ad4d9d177a32155, type: 3}
    - {fileID: -8737659049004476007, guid: e4d4dfe77b8ef4c61ad4d9d177a32155, type: 3}
    - {fileID: 6744282964674211799, guid: e4d4dfe77b8ef4c61ad4d9d177a32155, type: 3}
    - {fileID: -2660013216376298007, guid: e4d4dfe77b8ef4c61ad4d9d177a32155, type: 3}
    - {fileID: -6256830412612344871, guid: e4d4dfe77b8ef4c61ad4d9d177a32155, type: 3}
  m_AnimationClipSettings:
    serializedVersion: 2
    m_AdditiveReferencePoseClip: {fileID: 0}
    m_AdditiveReferencePoseTime: 0
    m_StartTime: 0
    m_StopTime: 0.5
    m_OrientationOffsetY: 0
    m_Level: 0
    m_CycleOffset: 0
    m_HasAdditiveReferencePose: 0
    m_LoopTime: 1
    m_LoopBlend: 0
    m_LoopBlendOrientation: 0
    m_LoopBlendPositionY: 0
    m_LoopBlendPositionXZ: 0
    m_KeepOriginalOrientation: 0
    m_KeepOriginalPositionY: 1
    m_KeepOriginalPositionXZ: 0
    m_HeightFromFeet: 0
    m_Mirror: 0
  m_EditorCurves:
  - curve:
      serializedVersion: 2
      m_Curve:
      - serializedVersion: 3
        time: 0
        value: 2.88
        inSlope: 0
        outSlope: 0
        tangentMode: 136
        weightedMode: 0
        inWeight: 0.33333334
        outWeight: 0.33333334
      - serializedVersion: 3
        time: 0.020833334
        value: 2.82
        inSlope: -3.840002
        outSlope: -3.840002
        tangentMode: 136
        weightedMode: 0
        inWeight: 0.33333334
        outWeight: 0.33333334
      - serializedVersion: 3
        time: 0.041666668
        value: 2.72
        inSlope: 0
        outSlope: 0
        tangentMode: 136
        weightedMode: 0
        inWeight: 0.33333334
        outWeight: 0.33333334
      m_PreInfinity: 2
      m_PostInfinity: 2
      m_RotationOrder: 4
    attribute: m_Size.y
    path: HurtBox
    classID: 70
    script: {fileID: 0}
  - curve:
      serializedVersion: 2
      m_Curve:
      - serializedVersion: 3
        time: 0
        value: 0.39
        inSlope: 0
        outSlope: 0
        tangentMode: 136
        weightedMode: 0
        inWeight: 0
        outWeight: 0
      m_PreInfinity: 2
      m_PostInfinity: 2
      m_RotationOrder: 4
    attribute: groundCheckRadius
    path: 
    classID: 114
    script: {fileID: 11500000, guid: 0e10b6895424c48ee8b99bd4d1c99309, type: 3}
  m_EulerEditorCurves: []
  m_HasGenericRootTransform: 0
  m_HasMotionFloatCurves: 0
  m_Events: []
