%YAML 1.1
%TAG !u! tag:unity3d.com,2011:
--- !u!74 &7400000
AnimationClip:
  m_ObjectHideFlags: 0
  m_CorrespondingSourceObject: {fileID: 0}
  m_PrefabInstance: {fileID: 0}
  m_PrefabAsset: {fileID: 0}
  m_Name: Runing
  serializedVersion: 6
  m_Legacy: 0
  m_Compressed: 0
  m_UseHighQualityCurve: 1
  m_RotationCurves: []
  m_CompressedRotationCurves: []
  m_EulerCurves: []
  m_PositionCurves: []
  m_ScaleCurves: []
  m_FloatCurves: []
  m_PPtrCurves:
  - curve:
    - time: 0
      value: {fileID: -2788002415378465417, guid: 6d767a0ca0c594ff8aea91419a316ce5,
        type: 3}
    - time: 0.020833334
      value: {fileID: 4260954352636723048, guid: 6d767a0ca0c594ff8aea91419a316ce5,
        type: 3}
    - time: 0.041666668
      value: {fileID: -401158206322440358, guid: 6d767a0ca0c594ff8aea91419a316ce5,
        type: 3}
    - time: 0.0625
      value: {fileID: 1060816389171801449, guid: 6d767a0ca0c594ff8aea91419a316ce5,
        type: 3}
    - time: 0.083333336
      value: {fileID: -915336927199263174, guid: 6d767a0ca0c594ff8aea91419a316ce5,
        type: 3}
    - time: 0.104166664
      value: {fileID: 7729126007079726965, guid: 6d767a0ca0c594ff8aea91419a316ce5,
        type: 3}
    - time: 0.125
      value: {fileID: -8254890838463448217, guid: 6d767a0ca0c594ff8aea91419a316ce5,
        type: 3}
    - time: 0.14583333
      value: {fileID: -4831892305743192614, guid: 6d767a0ca0c594ff8aea91419a316ce5,
        type: 3}
    - time: 0.16666667
      value: {fileID: 3611336474550794556, guid: 6d767a0ca0c594ff8aea91419a316ce5,
        type: 3}
    - time: 0.1875
      value: {fileID: 6017729719943881351, guid: 6d767a0ca0c594ff8aea91419a316ce5,
        type: 3}
    - time: 0.20833333
      value: {fileID: -2691600494809648819, guid: 6d767a0ca0c594ff8aea91419a316ce5,
        type: 3}
    - time: 0.22916667
      value: {fileID: 8441376299550057936, guid: 6d767a0ca0c594ff8aea91419a316ce5,
        type: 3}
    - time: 0.25
      value: {fileID: -51168741379650932, guid: 6d767a0ca0c594ff8aea91419a316ce5,
        type: 3}
    - time: 0.27083334
      value: {fileID: -9101594073057005008, guid: 6d767a0ca0c594ff8aea91419a316ce5,
        type: 3}
    - time: 0.29166666
      value: {fileID: -72700008727953008, guid: 6d767a0ca0c594ff8aea91419a316ce5,
        type: 3}
    - time: 0.3125
      value: {fileID: 1885740674312164662, guid: 6d767a0ca0c594ff8aea91419a316ce5,
        type: 3}
    - time: 0.33333334
      value: {fileID: 4195923498829968815, guid: 6d767a0ca0c594ff8aea91419a316ce5,
        type: 3}
    - time: 0.35416666
      value: {fileID: -2455402547843636551, guid: 6d767a0ca0c594ff8aea91419a316ce5,
        type: 3}
    - time: 0.375
      value: {fileID: -8347944654632785696, guid: 6d767a0ca0c594ff8aea91419a316ce5,
        type: 3}
    - time: 0.39583334
      value: {fileID: -3012718095210567134, guid: 6d767a0ca0c594ff8aea91419a316ce5,
        type: 3}
    - time: 0.41666666
      value: {fileID: 6425510997451925667, guid: 6d767a0ca0c594ff8aea91419a316ce5,
        type: 3}
    - time: 0.4375
      value: {fileID: 5125561668651060159, guid: 6d767a0ca0c594ff8aea91419a316ce5,
        type: 3}
    - time: 0.45833334
      value: {fileID: -5996622763465665886, guid: 6d767a0ca0c594ff8aea91419a316ce5,
        type: 3}
    attribute: m_Sprite
    path: 
    classID: 212
    script: {fileID: 0}
  m_SampleRate: 48
  m_WrapMode: 0
  m_Bounds:
    m_Center: {x: 0, y: 0, z: 0}
    m_Extent: {x: 0, y: 0, z: 0}
  m_ClipBindingConstant:
    genericBindings:
    - serializedVersion: 2
      path: 0
      attribute: 0
      script: {fileID: 0}
      typeID: 212
      customType: 23
      isPPtrCurve: 1
    pptrCurveMapping:
    - {fileID: -2788002415378465417, guid: 6d767a0ca0c594ff8aea91419a316ce5, type: 3}
    - {fileID: 4260954352636723048, guid: 6d767a0ca0c594ff8aea91419a316ce5, type: 3}
    - {fileID: -401158206322440358, guid: 6d767a0ca0c594ff8aea91419a316ce5, type: 3}
    - {fileID: 1060816389171801449, guid: 6d767a0ca0c594ff8aea91419a316ce5, type: 3}
    - {fileID: -915336927199263174, guid: 6d767a0ca0c594ff8aea91419a316ce5, type: 3}
    - {fileID: 7729126007079726965, guid: 6d767a0ca0c594ff8aea91419a316ce5, type: 3}
    - {fileID: -8254890838463448217, guid: 6d767a0ca0c594ff8aea91419a316ce5, type: 3}
    - {fileID: -4831892305743192614, guid: 6d767a0ca0c594ff8aea91419a316ce5, type: 3}
    - {fileID: 3611336474550794556, guid: 6d767a0ca0c594ff8aea91419a316ce5, type: 3}
    - {fileID: 6017729719943881351, guid: 6d767a0ca0c594ff8aea91419a316ce5, type: 3}
    - {fileID: -2691600494809648819, guid: 6d767a0ca0c594ff8aea91419a316ce5, type: 3}
    - {fileID: 8441376299550057936, guid: 6d767a0ca0c594ff8aea91419a316ce5, type: 3}
    - {fileID: -51168741379650932, guid: 6d767a0ca0c594ff8aea91419a316ce5, type: 3}
    - {fileID: -9101594073057005008, guid: 6d767a0ca0c594ff8aea91419a316ce5, type: 3}
    - {fileID: -72700008727953008, guid: 6d767a0ca0c594ff8aea91419a316ce5, type: 3}
    - {fileID: 1885740674312164662, guid: 6d767a0ca0c594ff8aea91419a316ce5, type: 3}
    - {fileID: 4195923498829968815, guid: 6d767a0ca0c594ff8aea91419a316ce5, type: 3}
    - {fileID: -2455402547843636551, guid: 6d767a0ca0c594ff8aea91419a316ce5, type: 3}
    - {fileID: -8347944654632785696, guid: 6d767a0ca0c594ff8aea91419a316ce5, type: 3}
    - {fileID: -3012718095210567134, guid: 6d767a0ca0c594ff8aea91419a316ce5, type: 3}
    - {fileID: 6425510997451925667, guid: 6d767a0ca0c594ff8aea91419a316ce5, type: 3}
    - {fileID: 5125561668651060159, guid: 6d767a0ca0c594ff8aea91419a316ce5, type: 3}
    - {fileID: -5996622763465665886, guid: 6d767a0ca0c594ff8aea91419a316ce5, type: 3}
  m_AnimationClipSettings:
    serializedVersion: 2
    m_AdditiveReferencePoseClip: {fileID: 0}
    m_AdditiveReferencePoseTime: 0
    m_StartTime: 0
    m_StopTime: 0.4791667
    m_OrientationOffsetY: 0
    m_Level: 0
    m_CycleOffset: 0
    m_HasAdditiveReferencePose: 0
    m_LoopTime: 1
    m_LoopBlend: 0
    m_LoopBlendOrientation: 0
    m_LoopBlendPositionY: 0
    m_LoopBlendPositionXZ: 0
    m_KeepOriginalOrientation: 0
    m_KeepOriginalPositionY: 1
    m_KeepOriginalPositionXZ: 0
    m_HeightFromFeet: 0
    m_Mirror: 0
  m_EditorCurves: []
  m_EulerEditorCurves: []
  m_HasGenericRootTransform: 0
  m_HasMotionFloatCurves: 0
  m_Events: []
