%YAML 1.1
%TAG !u! tag:unity3d.com,2011:
--- !u!74 &7400000
AnimationClip:
  m_ObjectHideFlags: 0
  m_CorrespondingSourceObject: {fileID: 0}
  m_PrefabInstance: {fileID: 0}
  m_PrefabAsset: {fileID: 0}
  m_Name: BejucoRunningFast
  serializedVersion: 6
  m_Legacy: 0
  m_Compressed: 0
  m_UseHighQualityCurve: 1
  m_RotationCurves: []
  m_CompressedRotationCurves: []
  m_EulerCurves: []
  m_PositionCurves: []
  m_ScaleCurves: []
  m_FloatCurves: []
  m_PPtrCurves:
  - curve:
    - time: 0
      value: {fileID: 3201325415203575373, guid: 3744b63e882464a999def58a8a3e216e,
        type: 3}
    - time: 0.020833334
      value: {fileID: 3946078332899621057, guid: 3744b63e882464a999def58a8a3e216e,
        type: 3}
    - time: 0.041666668
      value: {fileID: -2871933636444778021, guid: 3744b63e882464a999def58a8a3e216e,
        type: 3}
    - time: 0.0625
      value: {fileID: 7832454780114195744, guid: 3744b63e882464a999def58a8a3e216e,
        type: 3}
    - time: 0.083333336
      value: {fileID: -2425337834858820823, guid: 3744b63e882464a999def58a8a3e216e,
        type: 3}
    - time: 0.104166664
      value: {fileID: -6014154677714918099, guid: 3744b63e882464a999def58a8a3e216e,
        type: 3}
    - time: 0.125
      value: {fileID: -9033810869194294028, guid: 3744b63e882464a999def58a8a3e216e,
        type: 3}
    - time: 0.14583333
      value: {fileID: 371653131198736940, guid: 3744b63e882464a999def58a8a3e216e,
        type: 3}
    - time: 0.16666667
      value: {fileID: 631980884685618791, guid: 3744b63e882464a999def58a8a3e216e,
        type: 3}
    - time: 0.1875
      value: {fileID: 3184152001033193446, guid: 3744b63e882464a999def58a8a3e216e,
        type: 3}
    - time: 0.20833333
      value: {fileID: 9203004537024135741, guid: 3744b63e882464a999def58a8a3e216e,
        type: 3}
    - time: 0.22916667
      value: {fileID: -4966108810178418575, guid: 3744b63e882464a999def58a8a3e216e,
        type: 3}
    - time: 0.25
      value: {fileID: -1930307727695304786, guid: 3744b63e882464a999def58a8a3e216e,
        type: 3}
    - time: 0.27083334
      value: {fileID: 5161316162519211089, guid: 3744b63e882464a999def58a8a3e216e,
        type: 3}
    - time: 0.29166666
      value: {fileID: 2946309350382371059, guid: 3744b63e882464a999def58a8a3e216e,
        type: 3}
    - time: 0.3125
      value: {fileID: -4338053113150999705, guid: 3744b63e882464a999def58a8a3e216e,
        type: 3}
    - time: 0.33333334
      value: {fileID: -2154813689140293003, guid: 3744b63e882464a999def58a8a3e216e,
        type: 3}
    - time: 0.35416666
      value: {fileID: -7633877969360344724, guid: 3744b63e882464a999def58a8a3e216e,
        type: 3}
    - time: 0.375
      value: {fileID: -4038292539242834824, guid: 3744b63e882464a999def58a8a3e216e,
        type: 3}
    - time: 0.39583334
      value: {fileID: -4469155590609096307, guid: 3744b63e882464a999def58a8a3e216e,
        type: 3}
    - time: 0.41666666
      value: {fileID: -9163895446632302388, guid: 3744b63e882464a999def58a8a3e216e,
        type: 3}
    - time: 0.4375
      value: {fileID: 2800196359295474367, guid: 3744b63e882464a999def58a8a3e216e,
        type: 3}
    - time: 0.45833334
      value: {fileID: -653073644146424826, guid: 3744b63e882464a999def58a8a3e216e,
        type: 3}
    - time: 0.47916666
      value: {fileID: 2395185056618437864, guid: 3744b63e882464a999def58a8a3e216e,
        type: 3}
    attribute: m_Sprite
    path: 
    classID: 212
    script: {fileID: 0}
  m_SampleRate: 48
  m_WrapMode: 0
  m_Bounds:
    m_Center: {x: 0, y: 0, z: 0}
    m_Extent: {x: 0, y: 0, z: 0}
  m_ClipBindingConstant:
    genericBindings:
    - serializedVersion: 2
      path: 0
      attribute: 0
      script: {fileID: 0}
      typeID: 212
      customType: 23
      isPPtrCurve: 1
    pptrCurveMapping:
    - {fileID: 3201325415203575373, guid: 3744b63e882464a999def58a8a3e216e, type: 3}
    - {fileID: 3946078332899621057, guid: 3744b63e882464a999def58a8a3e216e, type: 3}
    - {fileID: -2871933636444778021, guid: 3744b63e882464a999def58a8a3e216e, type: 3}
    - {fileID: 7832454780114195744, guid: 3744b63e882464a999def58a8a3e216e, type: 3}
    - {fileID: -2425337834858820823, guid: 3744b63e882464a999def58a8a3e216e, type: 3}
    - {fileID: -6014154677714918099, guid: 3744b63e882464a999def58a8a3e216e, type: 3}
    - {fileID: -9033810869194294028, guid: 3744b63e882464a999def58a8a3e216e, type: 3}
    - {fileID: 371653131198736940, guid: 3744b63e882464a999def58a8a3e216e, type: 3}
    - {fileID: 631980884685618791, guid: 3744b63e882464a999def58a8a3e216e, type: 3}
    - {fileID: 3184152001033193446, guid: 3744b63e882464a999def58a8a3e216e, type: 3}
    - {fileID: 9203004537024135741, guid: 3744b63e882464a999def58a8a3e216e, type: 3}
    - {fileID: -4966108810178418575, guid: 3744b63e882464a999def58a8a3e216e, type: 3}
    - {fileID: -1930307727695304786, guid: 3744b63e882464a999def58a8a3e216e, type: 3}
    - {fileID: 5161316162519211089, guid: 3744b63e882464a999def58a8a3e216e, type: 3}
    - {fileID: 2946309350382371059, guid: 3744b63e882464a999def58a8a3e216e, type: 3}
    - {fileID: -4338053113150999705, guid: 3744b63e882464a999def58a8a3e216e, type: 3}
    - {fileID: -2154813689140293003, guid: 3744b63e882464a999def58a8a3e216e, type: 3}
    - {fileID: -7633877969360344724, guid: 3744b63e882464a999def58a8a3e216e, type: 3}
    - {fileID: -4038292539242834824, guid: 3744b63e882464a999def58a8a3e216e, type: 3}
    - {fileID: -4469155590609096307, guid: 3744b63e882464a999def58a8a3e216e, type: 3}
    - {fileID: -9163895446632302388, guid: 3744b63e882464a999def58a8a3e216e, type: 3}
    - {fileID: 2800196359295474367, guid: 3744b63e882464a999def58a8a3e216e, type: 3}
    - {fileID: -653073644146424826, guid: 3744b63e882464a999def58a8a3e216e, type: 3}
    - {fileID: 2395185056618437864, guid: 3744b63e882464a999def58a8a3e216e, type: 3}
  m_AnimationClipSettings:
    serializedVersion: 2
    m_AdditiveReferencePoseClip: {fileID: 0}
    m_AdditiveReferencePoseTime: 0
    m_StartTime: 0
    m_StopTime: 0.5
    m_OrientationOffsetY: 0
    m_Level: 0
    m_CycleOffset: 0
    m_HasAdditiveReferencePose: 0
    m_LoopTime: 1
    m_LoopBlend: 0
    m_LoopBlendOrientation: 0
    m_LoopBlendPositionY: 0
    m_LoopBlendPositionXZ: 0
    m_KeepOriginalOrientation: 0
    m_KeepOriginalPositionY: 1
    m_KeepOriginalPositionXZ: 0
    m_HeightFromFeet: 0
    m_Mirror: 0
  m_EditorCurves: []
  m_EulerEditorCurves: []
  m_HasGenericRootTransform: 0
  m_HasMotionFloatCurves: 0
  m_Events: []
