%YAML 1.1
%TAG !u! tag:unity3d.com,2011:
--- !u!74 &7400000
AnimationClip:
  m_ObjectHideFlags: 0
  m_CorrespondingSourceObject: {fileID: 0}
  m_PrefabInstance: {fileID: 0}
  m_PrefabAsset: {fileID: 0}
  m_Name: BejucoStartSlide
  serializedVersion: 6
  m_Legacy: 0
  m_Compressed: 0
  m_UseHighQualityCurve: 1
  m_RotationCurves: []
  m_CompressedRotationCurves: []
  m_EulerCurves: []
  m_PositionCurves: []
  m_ScaleCurves: []
  m_FloatCurves:
  - curve:
      serializedVersion: 2
      m_Curve:
      - serializedVersion: 3
        time: 0
        value: 2.82
        inSlope: 0
        outSlope: 0
        tangentMode: 136
        weightedMode: 0
        inWeight: 0.33333334
        outWeight: 0.33333334
      - serializedVersion: 3
        time: 0.01724138
        value: 2.69
        inSlope: -9.859998
        outSlope: -9.859998
        tangentMode: 136
        weightedMode: 0
        inWeight: 0.33333334
        outWeight: 0.33333334
      - serializedVersion: 3
        time: 0.03448276
        value: 2.48
        inSlope: -9.5700035
        outSlope: -9.5700035
        tangentMode: 136
        weightedMode: 0
        inWeight: 0.33333334
        outWeight: 0.33333334
      - serializedVersion: 3
        time: 0.05172414
        value: 2.36
        inSlope: -8.119999
        outSlope: -8.119999
        tangentMode: 136
        weightedMode: 0
        inWeight: 0.33333334
        outWeight: 0.33333334
      - serializedVersion: 3
        time: 0.06896552
        value: 2.2
        inSlope: -9.859998
        outSlope: -9.859998
        tangentMode: 136
        weightedMode: 0
        inWeight: 0.33333334
        outWeight: 0.33333334
      - serializedVersion: 3
        time: 0.0862069
        value: 2.02
        inSlope: -11.600001
        outSlope: -11.600001
        tangentMode: 136
        weightedMode: 0
        inWeight: 0.33333334
        outWeight: 0.33333334
      - serializedVersion: 3
        time: 0.10344828
        value: 1.8
        inSlope: -9.8600025
        outSlope: -9.8600025
        tangentMode: 136
        weightedMode: 0
        inWeight: 0.33333334
        outWeight: 0.33333334
      - serializedVersion: 3
        time: 0.12068965
        value: 1.68
        inSlope: -9.279999
        outSlope: -9.279999
        tangentMode: 136
        weightedMode: 0
        inWeight: 0.33333334
        outWeight: 0.33333334
      - serializedVersion: 3
        time: 0.13793103
        value: 1.48
        inSlope: 0
        outSlope: 0
        tangentMode: 136
        weightedMode: 0
        inWeight: 0.33333334
        outWeight: 0.33333334
      m_PreInfinity: 2
      m_PostInfinity: 2
      m_RotationOrder: 4
    attribute: m_Size.y
    path: 
    classID: 70
    script: {fileID: 0}
  - curve:
      serializedVersion: 2
      m_Curve:
      - serializedVersion: 3
        time: 0
        value: -0.11
        inSlope: 0
        outSlope: 0
        tangentMode: 136
        weightedMode: 0
        inWeight: 0.33333334
        outWeight: 0.33333334
      - serializedVersion: 3
        time: 0.01724138
        value: -0.17
        inSlope: -4.35
        outSlope: -4.35
        tangentMode: 136
        weightedMode: 0
        inWeight: 0.33333334
        outWeight: 0.33333334
      - serializedVersion: 3
        time: 0.03448276
        value: -0.26
        inSlope: -5.2199993
        outSlope: -5.2199993
        tangentMode: 136
        weightedMode: 0
        inWeight: 0.33333334
        outWeight: 0.33333334
      - serializedVersion: 3
        time: 0.05172414
        value: -0.35
        inSlope: -4.64
        outSlope: -4.64
        tangentMode: 136
        weightedMode: 0
        inWeight: 0.33333334
        outWeight: 0.33333334
      - serializedVersion: 3
        time: 0.06896552
        value: -0.42
        inSlope: -3.77
        outSlope: -3.77
        tangentMode: 136
        weightedMode: 0
        inWeight: 0.33333334
        outWeight: 0.33333334
      - serializedVersion: 3
        time: 0.0862069
        value: -0.48
        inSlope: -5.2200007
        outSlope: -5.2200007
        tangentMode: 136
        weightedMode: 0
        inWeight: 0.33333334
        outWeight: 0.33333334
      - serializedVersion: 3
        time: 0.10344828
        value: -0.6
        inSlope: -5.2200017
        outSlope: -5.2200017
        tangentMode: 136
        weightedMode: 0
        inWeight: 0.33333334
        outWeight: 0.33333334
      - serializedVersion: 3
        time: 0.12068965
        value: -0.66
        inSlope: -4.06
        outSlope: -4.06
        tangentMode: 136
        weightedMode: 0
        inWeight: 0.33333334
        outWeight: 0.33333334
      - serializedVersion: 3
        time: 0.13793103
        value: -0.74
        inSlope: 0
        outSlope: 0
        tangentMode: 136
        weightedMode: 0
        inWeight: 0.33333334
        outWeight: 0.33333334
      m_PreInfinity: 2
      m_PostInfinity: 2
      m_RotationOrder: 4
    attribute: m_Offset.y
    path: 
    classID: 70
    script: {fileID: 0}
  - curve:
      serializedVersion: 2
      m_Curve:
      - serializedVersion: 3
        time: 0
        value: 2.88
        inSlope: 0
        outSlope: 0
        tangentMode: 136
        weightedMode: 0
        inWeight: 0.33333334
        outWeight: 0.33333334
      - serializedVersion: 3
        time: 0.01724138
        value: 2.69
        inSlope: -11.600003
        outSlope: -11.600003
        tangentMode: 136
        weightedMode: 0
        inWeight: 0.33333334
        outWeight: 0.33333334
      - serializedVersion: 3
        time: 0.03448276
        value: 2.48
        inSlope: -8.700002
        outSlope: -8.700002
        tangentMode: 136
        weightedMode: 0
        inWeight: 0.33333334
        outWeight: 0.33333334
      - serializedVersion: 3
        time: 0.06896552
        value: 2.24
        inSlope: -8.700001
        outSlope: -8.700001
        tangentMode: 136
        weightedMode: 0
        inWeight: 0.33333334
        outWeight: 0.33333334
      - serializedVersion: 3
        time: 0.0862069
        value: 2.03
        inSlope: -11.599998
        outSlope: -11.599998
        tangentMode: 136
        weightedMode: 0
        inWeight: 0.33333334
        outWeight: 0.33333334
      - serializedVersion: 3
        time: 0.10344828
        value: 1.84
        inSlope: -10.150002
        outSlope: -10.150002
        tangentMode: 136
        weightedMode: 0
        inWeight: 0.33333334
        outWeight: 0.33333334
      - serializedVersion: 3
        time: 0.12068965
        value: 1.68
        inSlope: -9.280003
        outSlope: -9.280003
        tangentMode: 136
        weightedMode: 0
        inWeight: 0.33333334
        outWeight: 0.33333334
      - serializedVersion: 3
        time: 0.13793103
        value: 1.52
        inSlope: 0
        outSlope: 0
        tangentMode: 136
        weightedMode: 0
        inWeight: 0.33333334
        outWeight: 0.33333334
      m_PreInfinity: 2
      m_PostInfinity: 2
      m_RotationOrder: 4
    attribute: m_Size.y
    path: HurtBox
    classID: 70
    script: {fileID: 0}
  - curve:
      serializedVersion: 2
      m_Curve:
      - serializedVersion: 3
        time: 0
        value: -0.09
        inSlope: 0
        outSlope: 0
        tangentMode: 136
        weightedMode: 0
        inWeight: 0.33333334
        outWeight: 0.33333334
      - serializedVersion: 3
        time: 0.01724138
        value: -0.17
        inSlope: -4.93
        outSlope: -4.93
        tangentMode: 136
        weightedMode: 0
        inWeight: 0.33333334
        outWeight: 0.33333334
      - serializedVersion: 3
        time: 0.03448276
        value: -0.26
        inSlope: -6.959999
        outSlope: -6.959999
        tangentMode: 136
        weightedMode: 0
        inWeight: 0.33333334
        outWeight: 0.33333334
      - serializedVersion: 3
        time: 0.05172414
        value: -0.41
        inSlope: -5.8000007
        outSlope: -5.8000007
        tangentMode: 136
        weightedMode: 0
        inWeight: 0.33333334
        outWeight: 0.33333334
      - serializedVersion: 3
        time: 0.06896552
        value: -0.46
        inSlope: -4.3500004
        outSlope: -4.3500004
        tangentMode: 136
        weightedMode: 0
        inWeight: 0.33333334
        outWeight: 0.33333334
      - serializedVersion: 3
        time: 0.0862069
        value: -0.56
        inSlope: -4.06
        outSlope: -4.06
        tangentMode: 136
        weightedMode: 0
        inWeight: 0.33333334
        outWeight: 0.33333334
      - serializedVersion: 3
        time: 0.10344828
        value: -0.6
        inSlope: -3.4800005
        outSlope: -3.4800005
        tangentMode: 136
        weightedMode: 0
        inWeight: 0.33333334
        outWeight: 0.33333334
      - serializedVersion: 3
        time: 0.12068965
        value: -0.68
        inSlope: -5.8
        outSlope: -5.8
        tangentMode: 136
        weightedMode: 0
        inWeight: 0.33333334
        outWeight: 0.33333334
      - serializedVersion: 3
        time: 0.13793103
        value: -0.8
        inSlope: 0
        outSlope: 0
        tangentMode: 136
        weightedMode: 0
        inWeight: 0.33333334
        outWeight: 0.33333334
      m_PreInfinity: 2
      m_PostInfinity: 2
      m_RotationOrder: 4
    attribute: m_Offset.y
    path: HurtBox
    classID: 70
    script: {fileID: 0}
  m_PPtrCurves:
  - curve:
    - time: 0
      value: {fileID: 3250803233614721547, guid: 39942f139369549efbffc45955e8ae6d,
        type: 3}
    - time: 0.01724138
      value: {fileID: -8353272159928379126, guid: 39942f139369549efbffc45955e8ae6d,
        type: 3}
    - time: 0.03448276
      value: {fileID: 5971295632770969735, guid: 39942f139369549efbffc45955e8ae6d,
        type: 3}
    - time: 0.05172414
      value: {fileID: -5289814037812506493, guid: 39942f139369549efbffc45955e8ae6d,
        type: 3}
    - time: 0.06896552
      value: {fileID: -7622957774302721710, guid: 39942f139369549efbffc45955e8ae6d,
        type: 3}
    - time: 0.0862069
      value: {fileID: -6596865643182387966, guid: 39942f139369549efbffc45955e8ae6d,
        type: 3}
    - time: 0.10344828
      value: {fileID: -2088807936911782762, guid: 39942f139369549efbffc45955e8ae6d,
        type: 3}
    - time: 0.12068965
      value: {fileID: 5309555527546962604, guid: 39942f139369549efbffc45955e8ae6d,
        type: 3}
    - time: 0.13793103
      value: {fileID: 2866917465559459870, guid: 39942f139369549efbffc45955e8ae6d,
        type: 3}
    - time: 0.15517241
      value: {fileID: 4239144866559111537, guid: 39942f139369549efbffc45955e8ae6d,
        type: 3}
    - time: 0.1724138
      value: {fileID: 7703372840356070163, guid: 39942f139369549efbffc45955e8ae6d,
        type: 3}
    - time: 0.18965517
      value: {fileID: -2580696203584789043, guid: 39942f139369549efbffc45955e8ae6d,
        type: 3}
    - time: 0.20689656
      value: {fileID: 3972878828905572528, guid: 39942f139369549efbffc45955e8ae6d,
        type: 3}
    - time: 0.22413793
      value: {fileID: 4394480084204954393, guid: 39942f139369549efbffc45955e8ae6d,
        type: 3}
    - time: 0.2413793
      value: {fileID: -1102339049893371913, guid: 39942f139369549efbffc45955e8ae6d,
        type: 3}
    - time: 0.25862068
      value: {fileID: 4126503568740728390, guid: 39942f139369549efbffc45955e8ae6d,
        type: 3}
    - time: 0.27586207
      value: {fileID: -6707409841989524661, guid: 39942f139369549efbffc45955e8ae6d,
        type: 3}
    - time: 0.29310346
      value: {fileID: -5001034745329713558, guid: 39942f139369549efbffc45955e8ae6d,
        type: 3}
    - time: 0.31034482
      value: {fileID: 5908438410944991326, guid: 39942f139369549efbffc45955e8ae6d,
        type: 3}
    - time: 0.3275862
      value: {fileID: -1688004244129343810, guid: 39942f139369549efbffc45955e8ae6d,
        type: 3}
    - time: 0.3448276
      value: {fileID: -6155075500604983153, guid: 39942f139369549efbffc45955e8ae6d,
        type: 3}
    - time: 0.36206895
      value: {fileID: -1971872704998885126, guid: 39942f139369549efbffc45955e8ae6d,
        type: 3}
    - time: 0.37931034
      value: {fileID: 1592228975537620377, guid: 39942f139369549efbffc45955e8ae6d,
        type: 3}
    - time: 0.39655173
      value: {fileID: 1594888986874911590, guid: 39942f139369549efbffc45955e8ae6d,
        type: 3}
    attribute: m_Sprite
    path: 
    classID: 212
    script: {fileID: 0}
  m_SampleRate: 58
  m_WrapMode: 0
  m_Bounds:
    m_Center: {x: 0, y: 0, z: 0}
    m_Extent: {x: 0, y: 0, z: 0}
  m_ClipBindingConstant:
    genericBindings:
    - serializedVersion: 2
      path: 0
      attribute: 2368279999
      script: {fileID: 0}
      typeID: 70
      customType: 0
      isPPtrCurve: 0
    - serializedVersion: 2
      path: 0
      attribute: 1872933342
      script: {fileID: 0}
      typeID: 70
      customType: 0
      isPPtrCurve: 0
    - serializedVersion: 2
      path: 428682174
      attribute: 2368279999
      script: {fileID: 0}
      typeID: 70
      customType: 0
      isPPtrCurve: 0
    - serializedVersion: 2
      path: 428682174
      attribute: 1872933342
      script: {fileID: 0}
      typeID: 70
      customType: 0
      isPPtrCurve: 0
    - serializedVersion: 2
      path: 0
      attribute: 0
      script: {fileID: 0}
      typeID: 212
      customType: 23
      isPPtrCurve: 1
    pptrCurveMapping:
    - {fileID: 3250803233614721547, guid: 39942f139369549efbffc45955e8ae6d, type: 3}
    - {fileID: -8353272159928379126, guid: 39942f139369549efbffc45955e8ae6d, type: 3}
    - {fileID: 5971295632770969735, guid: 39942f139369549efbffc45955e8ae6d, type: 3}
    - {fileID: -5289814037812506493, guid: 39942f139369549efbffc45955e8ae6d, type: 3}
    - {fileID: -7622957774302721710, guid: 39942f139369549efbffc45955e8ae6d, type: 3}
    - {fileID: -6596865643182387966, guid: 39942f139369549efbffc45955e8ae6d, type: 3}
    - {fileID: -2088807936911782762, guid: 39942f139369549efbffc45955e8ae6d, type: 3}
    - {fileID: 5309555527546962604, guid: 39942f139369549efbffc45955e8ae6d, type: 3}
    - {fileID: 2866917465559459870, guid: 39942f139369549efbffc45955e8ae6d, type: 3}
    - {fileID: 4239144866559111537, guid: 39942f139369549efbffc45955e8ae6d, type: 3}
    - {fileID: 7703372840356070163, guid: 39942f139369549efbffc45955e8ae6d, type: 3}
    - {fileID: -2580696203584789043, guid: 39942f139369549efbffc45955e8ae6d, type: 3}
    - {fileID: 3972878828905572528, guid: 39942f139369549efbffc45955e8ae6d, type: 3}
    - {fileID: 4394480084204954393, guid: 39942f139369549efbffc45955e8ae6d, type: 3}
    - {fileID: -1102339049893371913, guid: 39942f139369549efbffc45955e8ae6d, type: 3}
    - {fileID: 4126503568740728390, guid: 39942f139369549efbffc45955e8ae6d, type: 3}
    - {fileID: -6707409841989524661, guid: 39942f139369549efbffc45955e8ae6d, type: 3}
    - {fileID: -5001034745329713558, guid: 39942f139369549efbffc45955e8ae6d, type: 3}
    - {fileID: 5908438410944991326, guid: 39942f139369549efbffc45955e8ae6d, type: 3}
    - {fileID: -1688004244129343810, guid: 39942f139369549efbffc45955e8ae6d, type: 3}
    - {fileID: -6155075500604983153, guid: 39942f139369549efbffc45955e8ae6d, type: 3}
    - {fileID: -1971872704998885126, guid: 39942f139369549efbffc45955e8ae6d, type: 3}
    - {fileID: 1592228975537620377, guid: 39942f139369549efbffc45955e8ae6d, type: 3}
    - {fileID: 1594888986874911590, guid: 39942f139369549efbffc45955e8ae6d, type: 3}
  m_AnimationClipSettings:
    serializedVersion: 2
    m_AdditiveReferencePoseClip: {fileID: 0}
    m_AdditiveReferencePoseTime: 0
    m_StartTime: 0
    m_StopTime: 0.41379312
    m_OrientationOffsetY: 0
    m_Level: 0
    m_CycleOffset: 0
    m_HasAdditiveReferencePose: 0
    m_LoopTime: 0
    m_LoopBlend: 0
    m_LoopBlendOrientation: 0
    m_LoopBlendPositionY: 0
    m_LoopBlendPositionXZ: 0
    m_KeepOriginalOrientation: 0
    m_KeepOriginalPositionY: 1
    m_KeepOriginalPositionXZ: 0
    m_HeightFromFeet: 0
    m_Mirror: 0
  m_EditorCurves:
  - curve:
      serializedVersion: 2
      m_Curve:
      - serializedVersion: 3
        time: 0
        value: 2.82
        inSlope: 0
        outSlope: 0
        tangentMode: 136
        weightedMode: 0
        inWeight: 0.33333334
        outWeight: 0.33333334
      - serializedVersion: 3
        time: 0.01724138
        value: 2.69
        inSlope: -9.859998
        outSlope: -9.859998
        tangentMode: 136
        weightedMode: 0
        inWeight: 0.33333334
        outWeight: 0.33333334
      - serializedVersion: 3
        time: 0.03448276
        value: 2.48
        inSlope: -9.5700035
        outSlope: -9.5700035
        tangentMode: 136
        weightedMode: 0
        inWeight: 0.33333334
        outWeight: 0.33333334
      - serializedVersion: 3
        time: 0.05172414
        value: 2.36
        inSlope: -8.119999
        outSlope: -8.119999
        tangentMode: 136
        weightedMode: 0
        inWeight: 0.33333334
        outWeight: 0.33333334
      - serializedVersion: 3
        time: 0.06896552
        value: 2.2
        inSlope: -9.859998
        outSlope: -9.859998
        tangentMode: 136
        weightedMode: 0
        inWeight: 0.33333334
        outWeight: 0.33333334
      - serializedVersion: 3
        time: 0.0862069
        value: 2.02
        inSlope: -11.600001
        outSlope: -11.600001
        tangentMode: 136
        weightedMode: 0
        inWeight: 0.33333334
        outWeight: 0.33333334
      - serializedVersion: 3
        time: 0.10344828
        value: 1.8
        inSlope: -9.8600025
        outSlope: -9.8600025
        tangentMode: 136
        weightedMode: 0
        inWeight: 0.33333334
        outWeight: 0.33333334
      - serializedVersion: 3
        time: 0.12068965
        value: 1.68
        inSlope: -9.279999
        outSlope: -9.279999
        tangentMode: 136
        weightedMode: 0
        inWeight: 0.33333334
        outWeight: 0.33333334
      - serializedVersion: 3
        time: 0.13793103
        value: 1.48
        inSlope: 0
        outSlope: 0
        tangentMode: 136
        weightedMode: 0
        inWeight: 0.33333334
        outWeight: 0.33333334
      m_PreInfinity: 2
      m_PostInfinity: 2
      m_RotationOrder: 4
    attribute: m_Size.y
    path: 
    classID: 70
    script: {fileID: 0}
  - curve:
      serializedVersion: 2
      m_Curve:
      - serializedVersion: 3
        time: 0
        value: -0.11
        inSlope: 0
        outSlope: 0
        tangentMode: 136
        weightedMode: 0
        inWeight: 0.33333334
        outWeight: 0.33333334
      - serializedVersion: 3
        time: 0.01724138
        value: -0.17
        inSlope: -4.35
        outSlope: -4.35
        tangentMode: 136
        weightedMode: 0
        inWeight: 0.33333334
        outWeight: 0.33333334
      - serializedVersion: 3
        time: 0.03448276
        value: -0.26
        inSlope: -5.2199993
        outSlope: -5.2199993
        tangentMode: 136
        weightedMode: 0
        inWeight: 0.33333334
        outWeight: 0.33333334
      - serializedVersion: 3
        time: 0.05172414
        value: -0.35
        inSlope: -4.64
        outSlope: -4.64
        tangentMode: 136
        weightedMode: 0
        inWeight: 0.33333334
        outWeight: 0.33333334
      - serializedVersion: 3
        time: 0.06896552
        value: -0.42
        inSlope: -3.77
        outSlope: -3.77
        tangentMode: 136
        weightedMode: 0
        inWeight: 0.33333334
        outWeight: 0.33333334
      - serializedVersion: 3
        time: 0.0862069
        value: -0.48
        inSlope: -5.2200007
        outSlope: -5.2200007
        tangentMode: 136
        weightedMode: 0
        inWeight: 0.33333334
        outWeight: 0.33333334
      - serializedVersion: 3
        time: 0.10344828
        value: -0.6
        inSlope: -5.2200017
        outSlope: -5.2200017
        tangentMode: 136
        weightedMode: 0
        inWeight: 0.33333334
        outWeight: 0.33333334
      - serializedVersion: 3
        time: 0.12068965
        value: -0.66
        inSlope: -4.06
        outSlope: -4.06
        tangentMode: 136
        weightedMode: 0
        inWeight: 0.33333334
        outWeight: 0.33333334
      - serializedVersion: 3
        time: 0.13793103
        value: -0.74
        inSlope: 0
        outSlope: 0
        tangentMode: 136
        weightedMode: 0
        inWeight: 0.33333334
        outWeight: 0.33333334
      m_PreInfinity: 2
      m_PostInfinity: 2
      m_RotationOrder: 4
    attribute: m_Offset.y
    path: 
    classID: 70
    script: {fileID: 0}
  - curve:
      serializedVersion: 2
      m_Curve:
      - serializedVersion: 3
        time: 0
        value: 2.88
        inSlope: 0
        outSlope: 0
        tangentMode: 136
        weightedMode: 0
        inWeight: 0.33333334
        outWeight: 0.33333334
      - serializedVersion: 3
        time: 0.01724138
        value: 2.69
        inSlope: -11.600003
        outSlope: -11.600003
        tangentMode: 136
        weightedMode: 0
        inWeight: 0.33333334
        outWeight: 0.33333334
      - serializedVersion: 3
        time: 0.03448276
        value: 2.48
        inSlope: -8.700002
        outSlope: -8.700002
        tangentMode: 136
        weightedMode: 0
        inWeight: 0.33333334
        outWeight: 0.33333334
      - serializedVersion: 3
        time: 0.06896552
        value: 2.24
        inSlope: -8.700001
        outSlope: -8.700001
        tangentMode: 136
        weightedMode: 0
        inWeight: 0.33333334
        outWeight: 0.33333334
      - serializedVersion: 3
        time: 0.0862069
        value: 2.03
        inSlope: -11.599998
        outSlope: -11.599998
        tangentMode: 136
        weightedMode: 0
        inWeight: 0.33333334
        outWeight: 0.33333334
      - serializedVersion: 3
        time: 0.10344828
        value: 1.84
        inSlope: -10.150002
        outSlope: -10.150002
        tangentMode: 136
        weightedMode: 0
        inWeight: 0.33333334
        outWeight: 0.33333334
      - serializedVersion: 3
        time: 0.12068965
        value: 1.68
        inSlope: -9.280003
        outSlope: -9.280003
        tangentMode: 136
        weightedMode: 0
        inWeight: 0.33333334
        outWeight: 0.33333334
      - serializedVersion: 3
        time: 0.13793103
        value: 1.52
        inSlope: 0
        outSlope: 0
        tangentMode: 136
        weightedMode: 0
        inWeight: 0.33333334
        outWeight: 0.33333334
      m_PreInfinity: 2
      m_PostInfinity: 2
      m_RotationOrder: 4
    attribute: m_Size.y
    path: HurtBox
    classID: 70
    script: {fileID: 0}
  - curve:
      serializedVersion: 2
      m_Curve:
      - serializedVersion: 3
        time: 0
        value: -0.09
        inSlope: 0
        outSlope: 0
        tangentMode: 136
        weightedMode: 0
        inWeight: 0.33333334
        outWeight: 0.33333334
      - serializedVersion: 3
        time: 0.01724138
        value: -0.17
        inSlope: -4.93
        outSlope: -4.93
        tangentMode: 136
        weightedMode: 0
        inWeight: 0.33333334
        outWeight: 0.33333334
      - serializedVersion: 3
        time: 0.03448276
        value: -0.26
        inSlope: -6.959999
        outSlope: -6.959999
        tangentMode: 136
        weightedMode: 0
        inWeight: 0.33333334
        outWeight: 0.33333334
      - serializedVersion: 3
        time: 0.05172414
        value: -0.41
        inSlope: -5.8000007
        outSlope: -5.8000007
        tangentMode: 136
        weightedMode: 0
        inWeight: 0.33333334
        outWeight: 0.33333334
      - serializedVersion: 3
        time: 0.06896552
        value: -0.46
        inSlope: -4.3500004
        outSlope: -4.3500004
        tangentMode: 136
        weightedMode: 0
        inWeight: 0.33333334
        outWeight: 0.33333334
      - serializedVersion: 3
        time: 0.0862069
        value: -0.56
        inSlope: -4.06
        outSlope: -4.06
        tangentMode: 136
        weightedMode: 0
        inWeight: 0.33333334
        outWeight: 0.33333334
      - serializedVersion: 3
        time: 0.10344828
        value: -0.6
        inSlope: -3.4800005
        outSlope: -3.4800005
        tangentMode: 136
        weightedMode: 0
        inWeight: 0.33333334
        outWeight: 0.33333334
      - serializedVersion: 3
        time: 0.12068965
        value: -0.68
        inSlope: -5.8
        outSlope: -5.8
        tangentMode: 136
        weightedMode: 0
        inWeight: 0.33333334
        outWeight: 0.33333334
      - serializedVersion: 3
        time: 0.13793103
        value: -0.8
        inSlope: 0
        outSlope: 0
        tangentMode: 136
        weightedMode: 0
        inWeight: 0.33333334
        outWeight: 0.33333334
      m_PreInfinity: 2
      m_PostInfinity: 2
      m_RotationOrder: 4
    attribute: m_Offset.y
    path: HurtBox
    classID: 70
    script: {fileID: 0}
  m_EulerEditorCurves: []
  m_HasGenericRootTransform: 0
  m_HasMotionFloatCurves: 0
  m_Events: []
