%YAML 1.1
%TAG !u! tag:unity3d.com,2011:
--- !u!1001 &1853635146662331800
PrefabInstance:
  m_ObjectHideFlags: 0
  serializedVersion: 2
  m_Modification:
    m_TransformParent: {fileID: 0}
    m_Modifications:
    - target: {fileID: 1836778762442246360, guid: b82e72c7ea6cd4194a63a5907529a34b,
        type: 3}
      propertyPath: m_ShapeLightFalloffOffset.x
      value: -18.95
      objectReference: {fileID: 0}
    - target: {fileID: 1836778762442246360, guid: b82e72c7ea6cd4194a63a5907529a34b,
        type: 3}
      propertyPath: m_Color.r
      value: 0.8509804
      objectReference: {fileID: 0}
    - target: {fileID: 1836778762442246360, guid: b82e72c7ea6cd4194a63a5907529a34b,
        type: 3}
      propertyPath: m_Color.g
      value: 0.27058825
      objectReference: {fileID: 0}
    - target: {fileID: 1836778762442246360, guid: b82e72c7ea6cd4194a63a5907529a34b,
        type: 3}
      propertyPath: m_Color.b
      value: 0.37254903
      objectReference: {fileID: 0}
    - target: {fileID: 1836778762442246367, guid: b82e72c7ea6cd4194a63a5907529a34b,
        type: 3}
      propertyPath: m_LocalPosition.x
      value: 7.42
      objectReference: {fileID: 0}
    - target: {fileID: 1836778762464250248, guid: b82e72c7ea6cd4194a63a5907529a34b,
        type: 3}
      propertyPath: m_LocalPosition.x
      value: -8.15
      objectReference: {fileID: 0}
    - target: {fileID: 1836778762464250248, guid: b82e72c7ea6cd4194a63a5907529a34b,
        type: 3}
      propertyPath: m_LocalPosition.y
      value: 1.16
      objectReference: {fileID: 0}
    - target: {fileID: 1836778762464250248, guid: b82e72c7ea6cd4194a63a5907529a34b,
        type: 3}
      propertyPath: m_LocalPosition.z
      value: 0
      objectReference: {fileID: 0}
    - target: {fileID: 1836778762464250248, guid: b82e72c7ea6cd4194a63a5907529a34b,
        type: 3}
      propertyPath: m_LocalRotation.x
      value: 0
      objectReference: {fileID: 0}
    - target: {fileID: 1836778762464250248, guid: b82e72c7ea6cd4194a63a5907529a34b,
        type: 3}
      propertyPath: m_LocalRotation.y
      value: 0
      objectReference: {fileID: 0}
    - target: {fileID: 1836778762464250248, guid: b82e72c7ea6cd4194a63a5907529a34b,
        type: 3}
      propertyPath: m_LocalRotation.z
      value: 0
      objectReference: {fileID: 0}
    - target: {fileID: 1836778762464250248, guid: b82e72c7ea6cd4194a63a5907529a34b,
        type: 3}
      propertyPath: m_LocalRotation.w
      value: 1
      objectReference: {fileID: 0}
    - target: {fileID: 1836778762464250248, guid: b82e72c7ea6cd4194a63a5907529a34b,
        type: 3}
      propertyPath: m_RootOrder
      value: 0
      objectReference: {fileID: 0}
    - target: {fileID: 1836778762464250248, guid: b82e72c7ea6cd4194a63a5907529a34b,
        type: 3}
      propertyPath: m_LocalEulerAnglesHint.x
      value: 0
      objectReference: {fileID: 0}
    - target: {fileID: 1836778762464250248, guid: b82e72c7ea6cd4194a63a5907529a34b,
        type: 3}
      propertyPath: m_LocalEulerAnglesHint.y
      value: 0
      objectReference: {fileID: 0}
    - target: {fileID: 1836778762464250248, guid: b82e72c7ea6cd4194a63a5907529a34b,
        type: 3}
      propertyPath: m_LocalEulerAnglesHint.z
      value: 0
      objectReference: {fileID: 0}
    - target: {fileID: 1836778762464250249, guid: b82e72c7ea6cd4194a63a5907529a34b,
        type: 3}
      propertyPath: lights.Array.size
      value: 1
      objectReference: {fileID: 0}
    - target: {fileID: 1836778762464250249, guid: b82e72c7ea6cd4194a63a5907529a34b,
        type: 3}
      propertyPath: isToRightLight
      value: 1
      objectReference: {fileID: 0}
    - target: {fileID: 1836778762464250249, guid: b82e72c7ea6cd4194a63a5907529a34b,
        type: 3}
      propertyPath: speed
      value: 200
      objectReference: {fileID: 0}
    - target: {fileID: 1836778762464250249, guid: b82e72c7ea6cd4194a63a5907529a34b,
        type: 3}
      propertyPath: lights.Array.data[0]
      value: 
      objectReference: {fileID: 55419602785979718}
    - target: {fileID: 1836778762464250250, guid: b82e72c7ea6cd4194a63a5907529a34b,
        type: 3}
      propertyPath: m_SpriteTilingProperty.oldSize.x
      value: 16.94
      objectReference: {fileID: 0}
    - target: {fileID: 1836778762464250250, guid: b82e72c7ea6cd4194a63a5907529a34b,
        type: 3}
      propertyPath: m_SpriteTilingProperty.oldSize.y
      value: 0.8
      objectReference: {fileID: 0}
    - target: {fileID: 1836778762464250250, guid: b82e72c7ea6cd4194a63a5907529a34b,
        type: 3}
      propertyPath: m_Offset.x
      value: 27.7
      objectReference: {fileID: 0}
    - target: {fileID: 1836778762464250253, guid: b82e72c7ea6cd4194a63a5907529a34b,
        type: 3}
      propertyPath: m_Name
      value: SingleRedLightRight
      objectReference: {fileID: 0}
    - target: {fileID: 1836778762464250254, guid: b82e72c7ea6cd4194a63a5907529a34b,
        type: 3}
      propertyPath: m_Controller
      value: 
      objectReference: {fileID: 0}
    - target: {fileID: 1836778762464250255, guid: b82e72c7ea6cd4194a63a5907529a34b,
        type: 3}
      propertyPath: m_Sprite
      value: 
      objectReference: {fileID: 21300000, guid: 806ee6509b766435999fc79ff0fba0e6,
        type: 3}
    - target: {fileID: 1836778762464250255, guid: b82e72c7ea6cd4194a63a5907529a34b,
        type: 3}
      propertyPath: m_Enabled
      value: 0
      objectReference: {fileID: 0}
    - target: {fileID: 3517080909679645482, guid: b82e72c7ea6cd4194a63a5907529a34b,
        type: 3}
      propertyPath: m_Constraints
      value: 4
      objectReference: {fileID: 0}
    m_RemovedComponents: []
  m_SourcePrefab: {fileID: 100100000, guid: b82e72c7ea6cd4194a63a5907529a34b, type: 3}
--- !u!1 &55419602785979718 stripped
GameObject:
  m_CorrespondingSourceObject: {fileID: 1836778762442246366, guid: b82e72c7ea6cd4194a63a5907529a34b,
    type: 3}
  m_PrefabInstance: {fileID: 1853635146662331800}
  m_PrefabAsset: {fileID: 0}
