%YAML 1.1
%TAG !u! tag:unity3d.com,2011:
--- !u!74 &7400000
AnimationClip:
  m_ObjectHideFlags: 0
  m_CorrespondingSourceObject: {fileID: 0}
  m_PrefabInstance: {fileID: 0}
  m_PrefabAsset: {fileID: 0}
  m_Name: ZuroIdle
  serializedVersion: 6
  m_Legacy: 0
  m_Compressed: 0
  m_UseHighQualityCurve: 1
  m_RotationCurves: []
  m_CompressedRotationCurves: []
  m_EulerCurves: []
  m_PositionCurves: []
  m_ScaleCurves: []
  m_FloatCurves: []
  m_PPtrCurves:
  - curve:
    - time: 0
      value: {fileID: -7966628291904252612, guid: d7c21939df9fa47dca354b71a3aa9e72,
        type: 3}
    - time: 0.041666668
      value: {fileID: 6834995590647679896, guid: d7c21939df9fa47dca354b71a3aa9e72,
        type: 3}
    - time: 0.083333336
      value: {fileID: 7751819810980802826, guid: d7c21939df9fa47dca354b71a3aa9e72,
        type: 3}
    - time: 0.125
      value: {fileID: 5027806734554119440, guid: d7c21939df9fa47dca354b71a3aa9e72,
        type: 3}
    - time: 0.16666667
      value: {fileID: -390400622083000837, guid: d7c21939df9fa47dca354b71a3aa9e72,
        type: 3}
    - time: 0.20833333
      value: {fileID: -4381026588408235834, guid: d7c21939df9fa47dca354b71a3aa9e72,
        type: 3}
    - time: 0.25
      value: {fileID: -2173487154517102658, guid: d7c21939df9fa47dca354b71a3aa9e72,
        type: 3}
    - time: 0.29166666
      value: {fileID: -2989511061895698734, guid: d7c21939df9fa47dca354b71a3aa9e72,
        type: 3}
    - time: 0.33333334
      value: {fileID: -5484919937581598647, guid: d7c21939df9fa47dca354b71a3aa9e72,
        type: 3}
    - time: 0.375
      value: {fileID: 8324075405209665221, guid: d7c21939df9fa47dca354b71a3aa9e72,
        type: 3}
    - time: 0.41666666
      value: {fileID: -2772995941200237151, guid: d7c21939df9fa47dca354b71a3aa9e72,
        type: 3}
    - time: 0.45833334
      value: {fileID: 7191642542176089135, guid: d7c21939df9fa47dca354b71a3aa9e72,
        type: 3}
    - time: 0.5
      value: {fileID: -4303234720545547824, guid: d7c21939df9fa47dca354b71a3aa9e72,
        type: 3}
    - time: 0.5416667
      value: {fileID: -8044577344794009784, guid: d7c21939df9fa47dca354b71a3aa9e72,
        type: 3}
    - time: 0.5833333
      value: {fileID: -8125540211975169295, guid: d7c21939df9fa47dca354b71a3aa9e72,
        type: 3}
    - time: 0.625
      value: {fileID: -5799975352095827149, guid: d7c21939df9fa47dca354b71a3aa9e72,
        type: 3}
    - time: 0.6666667
      value: {fileID: -414614690513296811, guid: d7c21939df9fa47dca354b71a3aa9e72,
        type: 3}
    - time: 0.7083333
      value: {fileID: 7816502912440679119, guid: d7c21939df9fa47dca354b71a3aa9e72,
        type: 3}
    - time: 0.75
      value: {fileID: 1706088801003956302, guid: d7c21939df9fa47dca354b71a3aa9e72,
        type: 3}
    - time: 0.7916667
      value: {fileID: 6206862242066893987, guid: d7c21939df9fa47dca354b71a3aa9e72,
        type: 3}
    - time: 0.8333333
      value: {fileID: 1453965187458209566, guid: d7c21939df9fa47dca354b71a3aa9e72,
        type: 3}
    - time: 0.875
      value: {fileID: 6330677608424158047, guid: d7c21939df9fa47dca354b71a3aa9e72,
        type: 3}
    - time: 0.9166667
      value: {fileID: 6371083495099078965, guid: d7c21939df9fa47dca354b71a3aa9e72,
        type: 3}
    - time: 0.9583333
      value: {fileID: 9095030257370585859, guid: d7c21939df9fa47dca354b71a3aa9e72,
        type: 3}
    attribute: m_Sprite
    path: 
    classID: 212
    script: {fileID: 0}
  - curve:
    - time: 0
      value: {fileID: -7966628291904252612, guid: d7c21939df9fa47dca354b71a3aa9e72,
        type: 3}
    - time: 0.041666668
      value: {fileID: 6834995590647679896, guid: d7c21939df9fa47dca354b71a3aa9e72,
        type: 3}
    - time: 0.083333336
      value: {fileID: 7751819810980802826, guid: d7c21939df9fa47dca354b71a3aa9e72,
        type: 3}
    - time: 0.125
      value: {fileID: 5027806734554119440, guid: d7c21939df9fa47dca354b71a3aa9e72,
        type: 3}
    - time: 0.16666667
      value: {fileID: -390400622083000837, guid: d7c21939df9fa47dca354b71a3aa9e72,
        type: 3}
    - time: 0.20833333
      value: {fileID: -4381026588408235834, guid: d7c21939df9fa47dca354b71a3aa9e72,
        type: 3}
    - time: 0.25
      value: {fileID: -2173487154517102658, guid: d7c21939df9fa47dca354b71a3aa9e72,
        type: 3}
    - time: 0.29166666
      value: {fileID: -2989511061895698734, guid: d7c21939df9fa47dca354b71a3aa9e72,
        type: 3}
    - time: 0.33333334
      value: {fileID: -5484919937581598647, guid: d7c21939df9fa47dca354b71a3aa9e72,
        type: 3}
    - time: 0.375
      value: {fileID: 8324075405209665221, guid: d7c21939df9fa47dca354b71a3aa9e72,
        type: 3}
    - time: 0.41666666
      value: {fileID: -2772995941200237151, guid: d7c21939df9fa47dca354b71a3aa9e72,
        type: 3}
    - time: 0.45833334
      value: {fileID: 7191642542176089135, guid: d7c21939df9fa47dca354b71a3aa9e72,
        type: 3}
    - time: 0.5
      value: {fileID: -4303234720545547824, guid: d7c21939df9fa47dca354b71a3aa9e72,
        type: 3}
    - time: 0.5416667
      value: {fileID: -8044577344794009784, guid: d7c21939df9fa47dca354b71a3aa9e72,
        type: 3}
    - time: 0.5833333
      value: {fileID: -8125540211975169295, guid: d7c21939df9fa47dca354b71a3aa9e72,
        type: 3}
    - time: 0.625
      value: {fileID: -5799975352095827149, guid: d7c21939df9fa47dca354b71a3aa9e72,
        type: 3}
    - time: 0.6666667
      value: {fileID: -414614690513296811, guid: d7c21939df9fa47dca354b71a3aa9e72,
        type: 3}
    - time: 0.7083333
      value: {fileID: 7816502912440679119, guid: d7c21939df9fa47dca354b71a3aa9e72,
        type: 3}
    - time: 0.75
      value: {fileID: 1706088801003956302, guid: d7c21939df9fa47dca354b71a3aa9e72,
        type: 3}
    - time: 0.7916667
      value: {fileID: 6206862242066893987, guid: d7c21939df9fa47dca354b71a3aa9e72,
        type: 3}
    - time: 0.8333333
      value: {fileID: 1453965187458209566, guid: d7c21939df9fa47dca354b71a3aa9e72,
        type: 3}
    - time: 0.875
      value: {fileID: 6330677608424158047, guid: d7c21939df9fa47dca354b71a3aa9e72,
        type: 3}
    - time: 0.9166667
      value: {fileID: 6371083495099078965, guid: d7c21939df9fa47dca354b71a3aa9e72,
        type: 3}
    - time: 0.9583333
      value: {fileID: 9095030257370585859, guid: d7c21939df9fa47dca354b71a3aa9e72,
        type: 3}
    attribute: m_LightCookieSprite
    path: Sprite Light 2D
    classID: 114
    script: {fileID: 11500000, guid: 073797afb82c5a1438f328866b10b3f0, type: 3}
  m_SampleRate: 24
  m_WrapMode: 0
  m_Bounds:
    m_Center: {x: 0, y: 0, z: 0}
    m_Extent: {x: 0, y: 0, z: 0}
  m_ClipBindingConstant:
    genericBindings:
    - serializedVersion: 2
      path: 0
      attribute: 0
      script: {fileID: 0}
      typeID: 212
      customType: 23
      isPPtrCurve: 1
    - serializedVersion: 2
      path: 2863771760
      attribute: 993967319
      script: {fileID: 11500000, guid: 073797afb82c5a1438f328866b10b3f0, type: 3}
      typeID: 114
      customType: 0
      isPPtrCurve: 1
    pptrCurveMapping:
    - {fileID: -7966628291904252612, guid: d7c21939df9fa47dca354b71a3aa9e72, type: 3}
    - {fileID: 6834995590647679896, guid: d7c21939df9fa47dca354b71a3aa9e72, type: 3}
    - {fileID: 7751819810980802826, guid: d7c21939df9fa47dca354b71a3aa9e72, type: 3}
    - {fileID: 5027806734554119440, guid: d7c21939df9fa47dca354b71a3aa9e72, type: 3}
    - {fileID: -390400622083000837, guid: d7c21939df9fa47dca354b71a3aa9e72, type: 3}
    - {fileID: -4381026588408235834, guid: d7c21939df9fa47dca354b71a3aa9e72, type: 3}
    - {fileID: -2173487154517102658, guid: d7c21939df9fa47dca354b71a3aa9e72, type: 3}
    - {fileID: -2989511061895698734, guid: d7c21939df9fa47dca354b71a3aa9e72, type: 3}
    - {fileID: -5484919937581598647, guid: d7c21939df9fa47dca354b71a3aa9e72, type: 3}
    - {fileID: 8324075405209665221, guid: d7c21939df9fa47dca354b71a3aa9e72, type: 3}
    - {fileID: -2772995941200237151, guid: d7c21939df9fa47dca354b71a3aa9e72, type: 3}
    - {fileID: 7191642542176089135, guid: d7c21939df9fa47dca354b71a3aa9e72, type: 3}
    - {fileID: -4303234720545547824, guid: d7c21939df9fa47dca354b71a3aa9e72, type: 3}
    - {fileID: -8044577344794009784, guid: d7c21939df9fa47dca354b71a3aa9e72, type: 3}
    - {fileID: -8125540211975169295, guid: d7c21939df9fa47dca354b71a3aa9e72, type: 3}
    - {fileID: -5799975352095827149, guid: d7c21939df9fa47dca354b71a3aa9e72, type: 3}
    - {fileID: -414614690513296811, guid: d7c21939df9fa47dca354b71a3aa9e72, type: 3}
    - {fileID: 7816502912440679119, guid: d7c21939df9fa47dca354b71a3aa9e72, type: 3}
    - {fileID: 1706088801003956302, guid: d7c21939df9fa47dca354b71a3aa9e72, type: 3}
    - {fileID: 6206862242066893987, guid: d7c21939df9fa47dca354b71a3aa9e72, type: 3}
    - {fileID: 1453965187458209566, guid: d7c21939df9fa47dca354b71a3aa9e72, type: 3}
    - {fileID: 6330677608424158047, guid: d7c21939df9fa47dca354b71a3aa9e72, type: 3}
    - {fileID: 6371083495099078965, guid: d7c21939df9fa47dca354b71a3aa9e72, type: 3}
    - {fileID: 9095030257370585859, guid: d7c21939df9fa47dca354b71a3aa9e72, type: 3}
    - {fileID: -7966628291904252612, guid: d7c21939df9fa47dca354b71a3aa9e72, type: 3}
    - {fileID: 6834995590647679896, guid: d7c21939df9fa47dca354b71a3aa9e72, type: 3}
    - {fileID: 7751819810980802826, guid: d7c21939df9fa47dca354b71a3aa9e72, type: 3}
    - {fileID: 5027806734554119440, guid: d7c21939df9fa47dca354b71a3aa9e72, type: 3}
    - {fileID: -390400622083000837, guid: d7c21939df9fa47dca354b71a3aa9e72, type: 3}
    - {fileID: -4381026588408235834, guid: d7c21939df9fa47dca354b71a3aa9e72, type: 3}
    - {fileID: -2173487154517102658, guid: d7c21939df9fa47dca354b71a3aa9e72, type: 3}
    - {fileID: -2989511061895698734, guid: d7c21939df9fa47dca354b71a3aa9e72, type: 3}
    - {fileID: -5484919937581598647, guid: d7c21939df9fa47dca354b71a3aa9e72, type: 3}
    - {fileID: 8324075405209665221, guid: d7c21939df9fa47dca354b71a3aa9e72, type: 3}
    - {fileID: -2772995941200237151, guid: d7c21939df9fa47dca354b71a3aa9e72, type: 3}
    - {fileID: 7191642542176089135, guid: d7c21939df9fa47dca354b71a3aa9e72, type: 3}
    - {fileID: -4303234720545547824, guid: d7c21939df9fa47dca354b71a3aa9e72, type: 3}
    - {fileID: -8044577344794009784, guid: d7c21939df9fa47dca354b71a3aa9e72, type: 3}
    - {fileID: -8125540211975169295, guid: d7c21939df9fa47dca354b71a3aa9e72, type: 3}
    - {fileID: -5799975352095827149, guid: d7c21939df9fa47dca354b71a3aa9e72, type: 3}
    - {fileID: -414614690513296811, guid: d7c21939df9fa47dca354b71a3aa9e72, type: 3}
    - {fileID: 7816502912440679119, guid: d7c21939df9fa47dca354b71a3aa9e72, type: 3}
    - {fileID: 1706088801003956302, guid: d7c21939df9fa47dca354b71a3aa9e72, type: 3}
    - {fileID: 6206862242066893987, guid: d7c21939df9fa47dca354b71a3aa9e72, type: 3}
    - {fileID: 1453965187458209566, guid: d7c21939df9fa47dca354b71a3aa9e72, type: 3}
    - {fileID: 6330677608424158047, guid: d7c21939df9fa47dca354b71a3aa9e72, type: 3}
    - {fileID: 6371083495099078965, guid: d7c21939df9fa47dca354b71a3aa9e72, type: 3}
    - {fileID: 9095030257370585859, guid: d7c21939df9fa47dca354b71a3aa9e72, type: 3}
  m_AnimationClipSettings:
    serializedVersion: 2
    m_AdditiveReferencePoseClip: {fileID: 0}
    m_AdditiveReferencePoseTime: 0
    m_StartTime: 0
    m_StopTime: 1
    m_OrientationOffsetY: 0
    m_Level: 0
    m_CycleOffset: 0
    m_HasAdditiveReferencePose: 0
    m_LoopTime: 1
    m_LoopBlend: 0
    m_LoopBlendOrientation: 0
    m_LoopBlendPositionY: 0
    m_LoopBlendPositionXZ: 0
    m_KeepOriginalOrientation: 0
    m_KeepOriginalPositionY: 1
    m_KeepOriginalPositionXZ: 0
    m_HeightFromFeet: 0
    m_Mirror: 0
  m_EditorCurves: []
  m_EulerEditorCurves: []
  m_HasGenericRootTransform: 0
  m_HasMotionFloatCurves: 0
  m_Events: []
