%YAML 1.1
%TAG !u! tag:unity3d.com,2011:
--- !u!74 &7400000
AnimationClip:
  m_ObjectHideFlags: 0
  m_CorrespondingSourceObject: {fileID: 0}
  m_PrefabInstance: {fileID: 0}
  m_PrefabAsset: {fileID: 0}
  m_Name: ZuroJumpAttack
  serializedVersion: 6
  m_Legacy: 0
  m_Compressed: 0
  m_UseHighQualityCurve: 1
  m_RotationCurves: []
  m_CompressedRotationCurves: []
  m_EulerCurves: []
  m_PositionCurves: []
  m_ScaleCurves: []
  m_FloatCurves: []
  m_PPtrCurves:
  - curve:
    - time: 0
      value: {fileID: -2487083659384292722, guid: e468fb008ee5c4ce5b3fc60740847b83,
        type: 3}
    - time: 0.020833334
      value: {fileID: -7407394207563127556, guid: e468fb008ee5c4ce5b3fc60740847b83,
        type: 3}
    - time: 0.041666668
      value: {fileID: 4183598637741045668, guid: e468fb008ee5c4ce5b3fc60740847b83,
        type: 3}
    - time: 0.0625
      value: {fileID: -7916559567910824537, guid: e468fb008ee5c4ce5b3fc60740847b83,
        type: 3}
    - time: 0.083333336
      value: {fileID: -8652353671702812573, guid: e468fb008ee5c4ce5b3fc60740847b83,
        type: 3}
    - time: 0.104166664
      value: {fileID: -9030319973377340403, guid: e468fb008ee5c4ce5b3fc60740847b83,
        type: 3}
    - time: 0.125
      value: {fileID: 6649279812751407836, guid: e468fb008ee5c4ce5b3fc60740847b83,
        type: 3}
    - time: 0.14583333
      value: {fileID: 5806908605586484082, guid: e468fb008ee5c4ce5b3fc60740847b83,
        type: 3}
    - time: 0.16666667
      value: {fileID: -7282720001173122812, guid: e468fb008ee5c4ce5b3fc60740847b83,
        type: 3}
    - time: 0.1875
      value: {fileID: -6777888423829557196, guid: e468fb008ee5c4ce5b3fc60740847b83,
        type: 3}
    - time: 0.20833333
      value: {fileID: -252877526884153025, guid: e468fb008ee5c4ce5b3fc60740847b83,
        type: 3}
    - time: 0.22916667
      value: {fileID: -5912864549048720885, guid: e468fb008ee5c4ce5b3fc60740847b83,
        type: 3}
    - time: 0.25
      value: {fileID: -5536408369583929312, guid: e468fb008ee5c4ce5b3fc60740847b83,
        type: 3}
    - time: 0.27083334
      value: {fileID: -2701669435992810858, guid: e468fb008ee5c4ce5b3fc60740847b83,
        type: 3}
    - time: 0.29166666
      value: {fileID: -5020462255518573842, guid: e468fb008ee5c4ce5b3fc60740847b83,
        type: 3}
    - time: 0.3125
      value: {fileID: 5406142101392473904, guid: e468fb008ee5c4ce5b3fc60740847b83,
        type: 3}
    - time: 0.33333334
      value: {fileID: -7074880436402511361, guid: e468fb008ee5c4ce5b3fc60740847b83,
        type: 3}
    - time: 0.35416666
      value: {fileID: -6928811133974678650, guid: e468fb008ee5c4ce5b3fc60740847b83,
        type: 3}
    - time: 0.375
      value: {fileID: 1362326813483399064, guid: e468fb008ee5c4ce5b3fc60740847b83,
        type: 3}
    - time: 0.39583334
      value: {fileID: -7885351867952441339, guid: e468fb008ee5c4ce5b3fc60740847b83,
        type: 3}
    - time: 0.41666666
      value: {fileID: 1494920887415259981, guid: e468fb008ee5c4ce5b3fc60740847b83,
        type: 3}
    - time: 0.4375
      value: {fileID: -5273842705677184076, guid: e468fb008ee5c4ce5b3fc60740847b83,
        type: 3}
    - time: 0.45833334
      value: {fileID: -5499258943716379175, guid: e468fb008ee5c4ce5b3fc60740847b83,
        type: 3}
    attribute: m_Sprite
    path: 
    classID: 212
    script: {fileID: 0}
  - curve:
    - time: 0
      value: {fileID: -3590560339143726352, guid: e468fb008ee5c4ce5b3fc60740847b83,
        type: 3}
    - time: 0.020833334
      value: {fileID: -2487083659384292722, guid: e468fb008ee5c4ce5b3fc60740847b83,
        type: 3}
    - time: 0.041666668
      value: {fileID: -7407394207563127556, guid: e468fb008ee5c4ce5b3fc60740847b83,
        type: 3}
    - time: 0.0625
      value: {fileID: 4183598637741045668, guid: e468fb008ee5c4ce5b3fc60740847b83,
        type: 3}
    - time: 0.083333336
      value: {fileID: -7916559567910824537, guid: e468fb008ee5c4ce5b3fc60740847b83,
        type: 3}
    - time: 0.104166664
      value: {fileID: -8652353671702812573, guid: e468fb008ee5c4ce5b3fc60740847b83,
        type: 3}
    - time: 0.125
      value: {fileID: -9030319973377340403, guid: e468fb008ee5c4ce5b3fc60740847b83,
        type: 3}
    - time: 0.14583333
      value: {fileID: 6649279812751407836, guid: e468fb008ee5c4ce5b3fc60740847b83,
        type: 3}
    - time: 0.16666667
      value: {fileID: 5806908605586484082, guid: e468fb008ee5c4ce5b3fc60740847b83,
        type: 3}
    - time: 0.1875
      value: {fileID: -7282720001173122812, guid: e468fb008ee5c4ce5b3fc60740847b83,
        type: 3}
    - time: 0.20833333
      value: {fileID: -6777888423829557196, guid: e468fb008ee5c4ce5b3fc60740847b83,
        type: 3}
    - time: 0.22916667
      value: {fileID: -252877526884153025, guid: e468fb008ee5c4ce5b3fc60740847b83,
        type: 3}
    - time: 0.25
      value: {fileID: -5912864549048720885, guid: e468fb008ee5c4ce5b3fc60740847b83,
        type: 3}
    - time: 0.27083334
      value: {fileID: -5536408369583929312, guid: e468fb008ee5c4ce5b3fc60740847b83,
        type: 3}
    - time: 0.29166666
      value: {fileID: -2701669435992810858, guid: e468fb008ee5c4ce5b3fc60740847b83,
        type: 3}
    - time: 0.3125
      value: {fileID: -5020462255518573842, guid: e468fb008ee5c4ce5b3fc60740847b83,
        type: 3}
    - time: 0.33333334
      value: {fileID: 5406142101392473904, guid: e468fb008ee5c4ce5b3fc60740847b83,
        type: 3}
    - time: 0.35416666
      value: {fileID: -7074880436402511361, guid: e468fb008ee5c4ce5b3fc60740847b83,
        type: 3}
    - time: 0.375
      value: {fileID: -6928811133974678650, guid: e468fb008ee5c4ce5b3fc60740847b83,
        type: 3}
    - time: 0.39583334
      value: {fileID: 1362326813483399064, guid: e468fb008ee5c4ce5b3fc60740847b83,
        type: 3}
    - time: 0.41666666
      value: {fileID: -7885351867952441339, guid: e468fb008ee5c4ce5b3fc60740847b83,
        type: 3}
    - time: 0.4375
      value: {fileID: 1494920887415259981, guid: e468fb008ee5c4ce5b3fc60740847b83,
        type: 3}
    - time: 0.45833334
      value: {fileID: -5273842705677184076, guid: e468fb008ee5c4ce5b3fc60740847b83,
        type: 3}
    - time: 0.47916666
      value: {fileID: -5499258943716379175, guid: e468fb008ee5c4ce5b3fc60740847b83,
        type: 3}
    attribute: m_LightCookieSprite
    path: Sprite Light 2D
    classID: 114
    script: {fileID: 11500000, guid: 073797afb82c5a1438f328866b10b3f0, type: 3}
  m_SampleRate: 48
  m_WrapMode: 0
  m_Bounds:
    m_Center: {x: 0, y: 0, z: 0}
    m_Extent: {x: 0, y: 0, z: 0}
  m_ClipBindingConstant:
    genericBindings:
    - serializedVersion: 2
      path: 0
      attribute: 0
      script: {fileID: 0}
      typeID: 212
      customType: 23
      isPPtrCurve: 1
    - serializedVersion: 2
      path: 2863771760
      attribute: 993967319
      script: {fileID: 11500000, guid: 073797afb82c5a1438f328866b10b3f0, type: 3}
      typeID: 114
      customType: 0
      isPPtrCurve: 1
    pptrCurveMapping:
    - {fileID: -2487083659384292722, guid: e468fb008ee5c4ce5b3fc60740847b83, type: 3}
    - {fileID: -7407394207563127556, guid: e468fb008ee5c4ce5b3fc60740847b83, type: 3}
    - {fileID: 4183598637741045668, guid: e468fb008ee5c4ce5b3fc60740847b83, type: 3}
    - {fileID: -7916559567910824537, guid: e468fb008ee5c4ce5b3fc60740847b83, type: 3}
    - {fileID: -8652353671702812573, guid: e468fb008ee5c4ce5b3fc60740847b83, type: 3}
    - {fileID: -9030319973377340403, guid: e468fb008ee5c4ce5b3fc60740847b83, type: 3}
    - {fileID: 6649279812751407836, guid: e468fb008ee5c4ce5b3fc60740847b83, type: 3}
    - {fileID: 5806908605586484082, guid: e468fb008ee5c4ce5b3fc60740847b83, type: 3}
    - {fileID: -7282720001173122812, guid: e468fb008ee5c4ce5b3fc60740847b83, type: 3}
    - {fileID: -6777888423829557196, guid: e468fb008ee5c4ce5b3fc60740847b83, type: 3}
    - {fileID: -252877526884153025, guid: e468fb008ee5c4ce5b3fc60740847b83, type: 3}
    - {fileID: -5912864549048720885, guid: e468fb008ee5c4ce5b3fc60740847b83, type: 3}
    - {fileID: -5536408369583929312, guid: e468fb008ee5c4ce5b3fc60740847b83, type: 3}
    - {fileID: -2701669435992810858, guid: e468fb008ee5c4ce5b3fc60740847b83, type: 3}
    - {fileID: -5020462255518573842, guid: e468fb008ee5c4ce5b3fc60740847b83, type: 3}
    - {fileID: 5406142101392473904, guid: e468fb008ee5c4ce5b3fc60740847b83, type: 3}
    - {fileID: -7074880436402511361, guid: e468fb008ee5c4ce5b3fc60740847b83, type: 3}
    - {fileID: -6928811133974678650, guid: e468fb008ee5c4ce5b3fc60740847b83, type: 3}
    - {fileID: 1362326813483399064, guid: e468fb008ee5c4ce5b3fc60740847b83, type: 3}
    - {fileID: -7885351867952441339, guid: e468fb008ee5c4ce5b3fc60740847b83, type: 3}
    - {fileID: 1494920887415259981, guid: e468fb008ee5c4ce5b3fc60740847b83, type: 3}
    - {fileID: -5273842705677184076, guid: e468fb008ee5c4ce5b3fc60740847b83, type: 3}
    - {fileID: -5499258943716379175, guid: e468fb008ee5c4ce5b3fc60740847b83, type: 3}
    - {fileID: -3590560339143726352, guid: e468fb008ee5c4ce5b3fc60740847b83, type: 3}
    - {fileID: -2487083659384292722, guid: e468fb008ee5c4ce5b3fc60740847b83, type: 3}
    - {fileID: -7407394207563127556, guid: e468fb008ee5c4ce5b3fc60740847b83, type: 3}
    - {fileID: 4183598637741045668, guid: e468fb008ee5c4ce5b3fc60740847b83, type: 3}
    - {fileID: -7916559567910824537, guid: e468fb008ee5c4ce5b3fc60740847b83, type: 3}
    - {fileID: -8652353671702812573, guid: e468fb008ee5c4ce5b3fc60740847b83, type: 3}
    - {fileID: -9030319973377340403, guid: e468fb008ee5c4ce5b3fc60740847b83, type: 3}
    - {fileID: 6649279812751407836, guid: e468fb008ee5c4ce5b3fc60740847b83, type: 3}
    - {fileID: 5806908605586484082, guid: e468fb008ee5c4ce5b3fc60740847b83, type: 3}
    - {fileID: -7282720001173122812, guid: e468fb008ee5c4ce5b3fc60740847b83, type: 3}
    - {fileID: -6777888423829557196, guid: e468fb008ee5c4ce5b3fc60740847b83, type: 3}
    - {fileID: -252877526884153025, guid: e468fb008ee5c4ce5b3fc60740847b83, type: 3}
    - {fileID: -5912864549048720885, guid: e468fb008ee5c4ce5b3fc60740847b83, type: 3}
    - {fileID: -5536408369583929312, guid: e468fb008ee5c4ce5b3fc60740847b83, type: 3}
    - {fileID: -2701669435992810858, guid: e468fb008ee5c4ce5b3fc60740847b83, type: 3}
    - {fileID: -5020462255518573842, guid: e468fb008ee5c4ce5b3fc60740847b83, type: 3}
    - {fileID: 5406142101392473904, guid: e468fb008ee5c4ce5b3fc60740847b83, type: 3}
    - {fileID: -7074880436402511361, guid: e468fb008ee5c4ce5b3fc60740847b83, type: 3}
    - {fileID: -6928811133974678650, guid: e468fb008ee5c4ce5b3fc60740847b83, type: 3}
    - {fileID: 1362326813483399064, guid: e468fb008ee5c4ce5b3fc60740847b83, type: 3}
    - {fileID: -7885351867952441339, guid: e468fb008ee5c4ce5b3fc60740847b83, type: 3}
    - {fileID: 1494920887415259981, guid: e468fb008ee5c4ce5b3fc60740847b83, type: 3}
    - {fileID: -5273842705677184076, guid: e468fb008ee5c4ce5b3fc60740847b83, type: 3}
    - {fileID: -5499258943716379175, guid: e468fb008ee5c4ce5b3fc60740847b83, type: 3}
  m_AnimationClipSettings:
    serializedVersion: 2
    m_AdditiveReferencePoseClip: {fileID: 0}
    m_AdditiveReferencePoseTime: 0
    m_StartTime: 0
    m_StopTime: 0.5
    m_OrientationOffsetY: 0
    m_Level: 0
    m_CycleOffset: 0
    m_HasAdditiveReferencePose: 0
    m_LoopTime: 1
    m_LoopBlend: 0
    m_LoopBlendOrientation: 0
    m_LoopBlendPositionY: 0
    m_LoopBlendPositionXZ: 0
    m_KeepOriginalOrientation: 0
    m_KeepOriginalPositionY: 1
    m_KeepOriginalPositionXZ: 0
    m_HeightFromFeet: 0
    m_Mirror: 0
  m_EditorCurves: []
  m_EulerEditorCurves: []
  m_HasGenericRootTransform: 0
  m_HasMotionFloatCurves: 0
  m_Events: []
