%YAML 1.1
%TAG !u! tag:unity3d.com,2011:
--- !u!74 &7400000
AnimationClip:
  m_ObjectHideFlags: 0
  m_CorrespondingSourceObject: {fileID: 0}
  m_PrefabInstance: {fileID: 0}
  m_PrefabAsset: {fileID: 0}
  m_Name: BoyoAtacando
  serializedVersion: 6
  m_Legacy: 0
  m_Compressed: 0
  m_UseHighQualityCurve: 1
  m_RotationCurves: []
  m_CompressedRotationCurves: []
  m_EulerCurves: []
  m_PositionCurves: []
  m_ScaleCurves: []
  m_FloatCurves: []
  m_PPtrCurves:
  - curve:
    - time: 0
      value: {fileID: -6530289493478423262, guid: dc3598e4eac4643eeb2363111d7e2982,
        type: 3}
    - time: 0.041666668
      value: {fileID: -5403553544764530533, guid: dc3598e4eac4643eeb2363111d7e2982,
        type: 3}
    - time: 0.083333336
      value: {fileID: -6426601268321028587, guid: dc3598e4eac4643eeb2363111d7e2982,
        type: 3}
    - time: 0.125
      value: {fileID: -7121667131042856561, guid: dc3598e4eac4643eeb2363111d7e2982,
        type: 3}
    - time: 0.16666667
      value: {fileID: -5930759360468495691, guid: dc3598e4eac4643eeb2363111d7e2982,
        type: 3}
    - time: 0.20833333
      value: {fileID: -2180805650561883149, guid: dc3598e4eac4643eeb2363111d7e2982,
        type: 3}
    - time: 0.25
      value: {fileID: -6657954228398564351, guid: dc3598e4eac4643eeb2363111d7e2982,
        type: 3}
    - time: 0.29166666
      value: {fileID: 5093580381244140337, guid: dc3598e4eac4643eeb2363111d7e2982,
        type: 3}
    - time: 0.33333334
      value: {fileID: -2288541925276958798, guid: dc3598e4eac4643eeb2363111d7e2982,
        type: 3}
    - time: 0.375
      value: {fileID: 1799299865422919943, guid: dc3598e4eac4643eeb2363111d7e2982,
        type: 3}
    - time: 0.41666666
      value: {fileID: 2260899310664861846, guid: dc3598e4eac4643eeb2363111d7e2982,
        type: 3}
    - time: 0.45833334
      value: {fileID: -2193880163435421054, guid: dc3598e4eac4643eeb2363111d7e2982,
        type: 3}
    - time: 0.5
      value: {fileID: 3050063369533766570, guid: dc3598e4eac4643eeb2363111d7e2982,
        type: 3}
    - time: 0.5416667
      value: {fileID: -4294194110479956776, guid: dc3598e4eac4643eeb2363111d7e2982,
        type: 3}
    - time: 0.5833333
      value: {fileID: 2488137452850805504, guid: dc3598e4eac4643eeb2363111d7e2982,
        type: 3}
    - time: 0.625
      value: {fileID: 8671948137843507593, guid: dc3598e4eac4643eeb2363111d7e2982,
        type: 3}
    - time: 0.6666667
      value: {fileID: 2970830991422612249, guid: dc3598e4eac4643eeb2363111d7e2982,
        type: 3}
    - time: 0.7083333
      value: {fileID: 4784922789368832809, guid: dc3598e4eac4643eeb2363111d7e2982,
        type: 3}
    - time: 0.75
      value: {fileID: -5983560843667069619, guid: dc3598e4eac4643eeb2363111d7e2982,
        type: 3}
    - time: 0.7916667
      value: {fileID: 7201506027372871858, guid: dc3598e4eac4643eeb2363111d7e2982,
        type: 3}
    - time: 0.8333333
      value: {fileID: 547926604381260247, guid: dc3598e4eac4643eeb2363111d7e2982,
        type: 3}
    - time: 0.875
      value: {fileID: 8741607172654976473, guid: dc3598e4eac4643eeb2363111d7e2982,
        type: 3}
    - time: 0.9166667
      value: {fileID: -759867566624213774, guid: dc3598e4eac4643eeb2363111d7e2982,
        type: 3}
    - time: 0.9583333
      value: {fileID: 8263893817561717831, guid: dc3598e4eac4643eeb2363111d7e2982,
        type: 3}
    attribute: m_Sprite
    path: 
    classID: 212
    script: {fileID: 0}
  - curve:
    - time: 0
      value: {fileID: -6530289493478423262, guid: dc3598e4eac4643eeb2363111d7e2982,
        type: 3}
    - time: 0.041666668
      value: {fileID: -5403553544764530533, guid: dc3598e4eac4643eeb2363111d7e2982,
        type: 3}
    - time: 0.083333336
      value: {fileID: -6426601268321028587, guid: dc3598e4eac4643eeb2363111d7e2982,
        type: 3}
    - time: 0.125
      value: {fileID: -7121667131042856561, guid: dc3598e4eac4643eeb2363111d7e2982,
        type: 3}
    - time: 0.16666667
      value: {fileID: -5930759360468495691, guid: dc3598e4eac4643eeb2363111d7e2982,
        type: 3}
    - time: 0.20833333
      value: {fileID: -2180805650561883149, guid: dc3598e4eac4643eeb2363111d7e2982,
        type: 3}
    - time: 0.25
      value: {fileID: -6657954228398564351, guid: dc3598e4eac4643eeb2363111d7e2982,
        type: 3}
    - time: 0.29166666
      value: {fileID: 5093580381244140337, guid: dc3598e4eac4643eeb2363111d7e2982,
        type: 3}
    - time: 0.33333334
      value: {fileID: -2288541925276958798, guid: dc3598e4eac4643eeb2363111d7e2982,
        type: 3}
    - time: 0.375
      value: {fileID: 1799299865422919943, guid: dc3598e4eac4643eeb2363111d7e2982,
        type: 3}
    - time: 0.41666666
      value: {fileID: 2260899310664861846, guid: dc3598e4eac4643eeb2363111d7e2982,
        type: 3}
    - time: 0.45833334
      value: {fileID: -2193880163435421054, guid: dc3598e4eac4643eeb2363111d7e2982,
        type: 3}
    - time: 0.5
      value: {fileID: 3050063369533766570, guid: dc3598e4eac4643eeb2363111d7e2982,
        type: 3}
    - time: 0.5416667
      value: {fileID: -4294194110479956776, guid: dc3598e4eac4643eeb2363111d7e2982,
        type: 3}
    - time: 0.5833333
      value: {fileID: 2488137452850805504, guid: dc3598e4eac4643eeb2363111d7e2982,
        type: 3}
    - time: 0.625
      value: {fileID: 8671948137843507593, guid: dc3598e4eac4643eeb2363111d7e2982,
        type: 3}
    - time: 0.6666667
      value: {fileID: 2970830991422612249, guid: dc3598e4eac4643eeb2363111d7e2982,
        type: 3}
    - time: 0.7083333
      value: {fileID: 4784922789368832809, guid: dc3598e4eac4643eeb2363111d7e2982,
        type: 3}
    - time: 0.75
      value: {fileID: -5983560843667069619, guid: dc3598e4eac4643eeb2363111d7e2982,
        type: 3}
    - time: 0.7916667
      value: {fileID: 7201506027372871858, guid: dc3598e4eac4643eeb2363111d7e2982,
        type: 3}
    - time: 0.8333333
      value: {fileID: 547926604381260247, guid: dc3598e4eac4643eeb2363111d7e2982,
        type: 3}
    - time: 0.875
      value: {fileID: 8741607172654976473, guid: dc3598e4eac4643eeb2363111d7e2982,
        type: 3}
    - time: 0.9166667
      value: {fileID: -759867566624213774, guid: dc3598e4eac4643eeb2363111d7e2982,
        type: 3}
    - time: 0.9583333
      value: {fileID: 8263893817561717831, guid: dc3598e4eac4643eeb2363111d7e2982,
        type: 3}
    attribute: m_LightCookieSprite
    path: Sprite Light 2D
    classID: 114
    script: {fileID: 11500000, guid: 073797afb82c5a1438f328866b10b3f0, type: 3}
  m_SampleRate: 24
  m_WrapMode: 0
  m_Bounds:
    m_Center: {x: 0, y: 0, z: 0}
    m_Extent: {x: 0, y: 0, z: 0}
  m_ClipBindingConstant:
    genericBindings:
    - serializedVersion: 2
      path: 0
      attribute: 0
      script: {fileID: 0}
      typeID: 212
      customType: 23
      isPPtrCurve: 1
    - serializedVersion: 2
      path: 2863771760
      attribute: 993967319
      script: {fileID: 11500000, guid: 073797afb82c5a1438f328866b10b3f0, type: 3}
      typeID: 114
      customType: 0
      isPPtrCurve: 1
    pptrCurveMapping:
    - {fileID: -6530289493478423262, guid: dc3598e4eac4643eeb2363111d7e2982, type: 3}
    - {fileID: -5403553544764530533, guid: dc3598e4eac4643eeb2363111d7e2982, type: 3}
    - {fileID: -6426601268321028587, guid: dc3598e4eac4643eeb2363111d7e2982, type: 3}
    - {fileID: -7121667131042856561, guid: dc3598e4eac4643eeb2363111d7e2982, type: 3}
    - {fileID: -5930759360468495691, guid: dc3598e4eac4643eeb2363111d7e2982, type: 3}
    - {fileID: -2180805650561883149, guid: dc3598e4eac4643eeb2363111d7e2982, type: 3}
    - {fileID: -6657954228398564351, guid: dc3598e4eac4643eeb2363111d7e2982, type: 3}
    - {fileID: 5093580381244140337, guid: dc3598e4eac4643eeb2363111d7e2982, type: 3}
    - {fileID: -2288541925276958798, guid: dc3598e4eac4643eeb2363111d7e2982, type: 3}
    - {fileID: 1799299865422919943, guid: dc3598e4eac4643eeb2363111d7e2982, type: 3}
    - {fileID: 2260899310664861846, guid: dc3598e4eac4643eeb2363111d7e2982, type: 3}
    - {fileID: -2193880163435421054, guid: dc3598e4eac4643eeb2363111d7e2982, type: 3}
    - {fileID: 3050063369533766570, guid: dc3598e4eac4643eeb2363111d7e2982, type: 3}
    - {fileID: -4294194110479956776, guid: dc3598e4eac4643eeb2363111d7e2982, type: 3}
    - {fileID: 2488137452850805504, guid: dc3598e4eac4643eeb2363111d7e2982, type: 3}
    - {fileID: 8671948137843507593, guid: dc3598e4eac4643eeb2363111d7e2982, type: 3}
    - {fileID: 2970830991422612249, guid: dc3598e4eac4643eeb2363111d7e2982, type: 3}
    - {fileID: 4784922789368832809, guid: dc3598e4eac4643eeb2363111d7e2982, type: 3}
    - {fileID: -5983560843667069619, guid: dc3598e4eac4643eeb2363111d7e2982, type: 3}
    - {fileID: 7201506027372871858, guid: dc3598e4eac4643eeb2363111d7e2982, type: 3}
    - {fileID: 547926604381260247, guid: dc3598e4eac4643eeb2363111d7e2982, type: 3}
    - {fileID: 8741607172654976473, guid: dc3598e4eac4643eeb2363111d7e2982, type: 3}
    - {fileID: -759867566624213774, guid: dc3598e4eac4643eeb2363111d7e2982, type: 3}
    - {fileID: 8263893817561717831, guid: dc3598e4eac4643eeb2363111d7e2982, type: 3}
    - {fileID: -6530289493478423262, guid: dc3598e4eac4643eeb2363111d7e2982, type: 3}
    - {fileID: -5403553544764530533, guid: dc3598e4eac4643eeb2363111d7e2982, type: 3}
    - {fileID: -6426601268321028587, guid: dc3598e4eac4643eeb2363111d7e2982, type: 3}
    - {fileID: -7121667131042856561, guid: dc3598e4eac4643eeb2363111d7e2982, type: 3}
    - {fileID: -5930759360468495691, guid: dc3598e4eac4643eeb2363111d7e2982, type: 3}
    - {fileID: -2180805650561883149, guid: dc3598e4eac4643eeb2363111d7e2982, type: 3}
    - {fileID: -6657954228398564351, guid: dc3598e4eac4643eeb2363111d7e2982, type: 3}
    - {fileID: 5093580381244140337, guid: dc3598e4eac4643eeb2363111d7e2982, type: 3}
    - {fileID: -2288541925276958798, guid: dc3598e4eac4643eeb2363111d7e2982, type: 3}
    - {fileID: 1799299865422919943, guid: dc3598e4eac4643eeb2363111d7e2982, type: 3}
    - {fileID: 2260899310664861846, guid: dc3598e4eac4643eeb2363111d7e2982, type: 3}
    - {fileID: -2193880163435421054, guid: dc3598e4eac4643eeb2363111d7e2982, type: 3}
    - {fileID: 3050063369533766570, guid: dc3598e4eac4643eeb2363111d7e2982, type: 3}
    - {fileID: -4294194110479956776, guid: dc3598e4eac4643eeb2363111d7e2982, type: 3}
    - {fileID: 2488137452850805504, guid: dc3598e4eac4643eeb2363111d7e2982, type: 3}
    - {fileID: 8671948137843507593, guid: dc3598e4eac4643eeb2363111d7e2982, type: 3}
    - {fileID: 2970830991422612249, guid: dc3598e4eac4643eeb2363111d7e2982, type: 3}
    - {fileID: 4784922789368832809, guid: dc3598e4eac4643eeb2363111d7e2982, type: 3}
    - {fileID: -5983560843667069619, guid: dc3598e4eac4643eeb2363111d7e2982, type: 3}
    - {fileID: 7201506027372871858, guid: dc3598e4eac4643eeb2363111d7e2982, type: 3}
    - {fileID: 547926604381260247, guid: dc3598e4eac4643eeb2363111d7e2982, type: 3}
    - {fileID: 8741607172654976473, guid: dc3598e4eac4643eeb2363111d7e2982, type: 3}
    - {fileID: -759867566624213774, guid: dc3598e4eac4643eeb2363111d7e2982, type: 3}
    - {fileID: 8263893817561717831, guid: dc3598e4eac4643eeb2363111d7e2982, type: 3}
  m_AnimationClipSettings:
    serializedVersion: 2
    m_AdditiveReferencePoseClip: {fileID: 0}
    m_AdditiveReferencePoseTime: 0
    m_StartTime: 0
    m_StopTime: 1
    m_OrientationOffsetY: 0
    m_Level: 0
    m_CycleOffset: 0
    m_HasAdditiveReferencePose: 0
    m_LoopTime: 1
    m_LoopBlend: 0
    m_LoopBlendOrientation: 0
    m_LoopBlendPositionY: 0
    m_LoopBlendPositionXZ: 0
    m_KeepOriginalOrientation: 0
    m_KeepOriginalPositionY: 1
    m_KeepOriginalPositionXZ: 0
    m_HeightFromFeet: 0
    m_Mirror: 0
  m_EditorCurves: []
  m_EulerEditorCurves: []
  m_HasGenericRootTransform: 0
  m_HasMotionFloatCurves: 0
  m_Events: []
