%YAML 1.1
%TAG !u! tag:unity3d.com,2011:
--- !u!74 &7400000
AnimationClip:
  m_ObjectHideFlags: 0
  m_CorrespondingSourceObject: {fileID: 0}
  m_PrefabInstance: {fileID: 0}
  m_PrefabAsset: {fileID: 0}
  m_Name: ZuroIdle
  serializedVersion: 6
  m_Legacy: 0
  m_Compressed: 0
  m_UseHighQualityCurve: 1
  m_RotationCurves: []
  m_CompressedRotationCurves: []
  m_EulerCurves: []
  m_PositionCurves: []
  m_ScaleCurves: []
  m_FloatCurves: []
  m_PPtrCurves:
  - curve:
    - time: 0
      value: {fileID: 1945620462591923343, guid: 4484be0bc3bcf46cc9f62e3a8b9e01a5,
        type: 3}
    - time: 0.033333335
      value: {fileID: 5476224838214924216, guid: 4484be0bc3bcf46cc9f62e3a8b9e01a5,
        type: 3}
    - time: 0.083333336
      value: {fileID: -5173479724605356323, guid: 4484be0bc3bcf46cc9f62e3a8b9e01a5,
        type: 3}
    - time: 0.13333334
      value: {fileID: 470904877429307043, guid: 4484be0bc3bcf46cc9f62e3a8b9e01a5,
        type: 3}
    - time: 0.16666667
      value: {fileID: -3465012964444801940, guid: 4484be0bc3bcf46cc9f62e3a8b9e01a5,
        type: 3}
    - time: 0.2
      value: {fileID: 7379147243802743604, guid: 4484be0bc3bcf46cc9f62e3a8b9e01a5,
        type: 3}
    - time: 0.25
      value: {fileID: -4445640994417698988, guid: 4484be0bc3bcf46cc9f62e3a8b9e01a5,
        type: 3}
    - time: 0.3
      value: {fileID: 143105990446924323, guid: 4484be0bc3bcf46cc9f62e3a8b9e01a5,
        type: 3}
    - time: 0.33333334
      value: {fileID: 3727391613981281552, guid: 4484be0bc3bcf46cc9f62e3a8b9e01a5,
        type: 3}
    - time: 0.36666667
      value: {fileID: 7978095280740581566, guid: 4484be0bc3bcf46cc9f62e3a8b9e01a5,
        type: 3}
    - time: 0.41666666
      value: {fileID: -5770366577430526078, guid: 4484be0bc3bcf46cc9f62e3a8b9e01a5,
        type: 3}
    - time: 0.46666667
      value: {fileID: 279668036917202020, guid: 4484be0bc3bcf46cc9f62e3a8b9e01a5,
        type: 3}
    - time: 0.5
      value: {fileID: -2480511493026923853, guid: 4484be0bc3bcf46cc9f62e3a8b9e01a5,
        type: 3}
    - time: 0.53333336
      value: {fileID: -1660702663231604186, guid: 4484be0bc3bcf46cc9f62e3a8b9e01a5,
        type: 3}
    - time: 0.5833333
      value: {fileID: 2094484966192665706, guid: 4484be0bc3bcf46cc9f62e3a8b9e01a5,
        type: 3}
    - time: 0.6333333
      value: {fileID: -4207070083975202936, guid: 4484be0bc3bcf46cc9f62e3a8b9e01a5,
        type: 3}
    - time: 0.6666667
      value: {fileID: -6609651229791069894, guid: 4484be0bc3bcf46cc9f62e3a8b9e01a5,
        type: 3}
    - time: 0.7
      value: {fileID: 7046474644749199770, guid: 4484be0bc3bcf46cc9f62e3a8b9e01a5,
        type: 3}
    - time: 0.75
      value: {fileID: -818407428134138652, guid: 4484be0bc3bcf46cc9f62e3a8b9e01a5,
        type: 3}
    - time: 0.8
      value: {fileID: 7912270396289993490, guid: 4484be0bc3bcf46cc9f62e3a8b9e01a5,
        type: 3}
    - time: 0.8333333
      value: {fileID: 871810357155842129, guid: 4484be0bc3bcf46cc9f62e3a8b9e01a5,
        type: 3}
    - time: 0.8666667
      value: {fileID: -8054002976504568432, guid: 4484be0bc3bcf46cc9f62e3a8b9e01a5,
        type: 3}
    - time: 0.9166667
      value: {fileID: -4206563307192177401, guid: 4484be0bc3bcf46cc9f62e3a8b9e01a5,
        type: 3}
    - time: 0.96666664
      value: {fileID: -5764769124902097521, guid: 4484be0bc3bcf46cc9f62e3a8b9e01a5,
        type: 3}
    - time: 1
      value: {fileID: 1945620462591923343, guid: 4484be0bc3bcf46cc9f62e3a8b9e01a5,
        type: 3}
    attribute: m_Sprite
    path: 
    classID: 212
    script: {fileID: 0}
  - curve:
    - time: 0
      value: {fileID: 5476224838214924216, guid: 4484be0bc3bcf46cc9f62e3a8b9e01a5,
        type: 3}
    - time: 0.033333335
      value: {fileID: -5173479724605356323, guid: 4484be0bc3bcf46cc9f62e3a8b9e01a5,
        type: 3}
    - time: 0.083333336
      value: {fileID: 470904877429307043, guid: 4484be0bc3bcf46cc9f62e3a8b9e01a5,
        type: 3}
    - time: 0.13333334
      value: {fileID: -3465012964444801940, guid: 4484be0bc3bcf46cc9f62e3a8b9e01a5,
        type: 3}
    - time: 0.16666667
      value: {fileID: 7379147243802743604, guid: 4484be0bc3bcf46cc9f62e3a8b9e01a5,
        type: 3}
    - time: 0.2
      value: {fileID: -4445640994417698988, guid: 4484be0bc3bcf46cc9f62e3a8b9e01a5,
        type: 3}
    - time: 0.25
      value: {fileID: 143105990446924323, guid: 4484be0bc3bcf46cc9f62e3a8b9e01a5,
        type: 3}
    - time: 0.3
      value: {fileID: 3727391613981281552, guid: 4484be0bc3bcf46cc9f62e3a8b9e01a5,
        type: 3}
    - time: 0.33333334
      value: {fileID: 7978095280740581566, guid: 4484be0bc3bcf46cc9f62e3a8b9e01a5,
        type: 3}
    - time: 0.36666667
      value: {fileID: -5770366577430526078, guid: 4484be0bc3bcf46cc9f62e3a8b9e01a5,
        type: 3}
    - time: 0.41666666
      value: {fileID: 279668036917202020, guid: 4484be0bc3bcf46cc9f62e3a8b9e01a5,
        type: 3}
    - time: 0.46666667
      value: {fileID: -2480511493026923853, guid: 4484be0bc3bcf46cc9f62e3a8b9e01a5,
        type: 3}
    - time: 0.5
      value: {fileID: -1660702663231604186, guid: 4484be0bc3bcf46cc9f62e3a8b9e01a5,
        type: 3}
    - time: 0.53333336
      value: {fileID: 2094484966192665706, guid: 4484be0bc3bcf46cc9f62e3a8b9e01a5,
        type: 3}
    - time: 0.5833333
      value: {fileID: -4207070083975202936, guid: 4484be0bc3bcf46cc9f62e3a8b9e01a5,
        type: 3}
    - time: 0.6333333
      value: {fileID: -6609651229791069894, guid: 4484be0bc3bcf46cc9f62e3a8b9e01a5,
        type: 3}
    - time: 0.6666667
      value: {fileID: 7046474644749199770, guid: 4484be0bc3bcf46cc9f62e3a8b9e01a5,
        type: 3}
    - time: 0.7
      value: {fileID: -818407428134138652, guid: 4484be0bc3bcf46cc9f62e3a8b9e01a5,
        type: 3}
    - time: 0.75
      value: {fileID: 7912270396289993490, guid: 4484be0bc3bcf46cc9f62e3a8b9e01a5,
        type: 3}
    - time: 0.8
      value: {fileID: 871810357155842129, guid: 4484be0bc3bcf46cc9f62e3a8b9e01a5,
        type: 3}
    - time: 0.8333333
      value: {fileID: -8054002976504568432, guid: 4484be0bc3bcf46cc9f62e3a8b9e01a5,
        type: 3}
    - time: 0.8666667
      value: {fileID: -4206563307192177401, guid: 4484be0bc3bcf46cc9f62e3a8b9e01a5,
        type: 3}
    - time: 0.9166667
      value: {fileID: -5764769124902097521, guid: 4484be0bc3bcf46cc9f62e3a8b9e01a5,
        type: 3}
    - time: 1
      value: {fileID: 5476224838214924216, guid: 4484be0bc3bcf46cc9f62e3a8b9e01a5,
        type: 3}
    attribute: m_LightCookieSprite
    path: Sprite Light 2D
    classID: 114
    script: {fileID: 11500000, guid: 073797afb82c5a1438f328866b10b3f0, type: 3}
  m_SampleRate: 60
  m_WrapMode: 0
  m_Bounds:
    m_Center: {x: 0, y: 0, z: 0}
    m_Extent: {x: 0, y: 0, z: 0}
  m_ClipBindingConstant:
    genericBindings:
    - serializedVersion: 2
      path: 0
      attribute: 0
      script: {fileID: 0}
      typeID: 212
      customType: 23
      isPPtrCurve: 1
    - serializedVersion: 2
      path: 2863771760
      attribute: 993967319
      script: {fileID: 11500000, guid: 073797afb82c5a1438f328866b10b3f0, type: 3}
      typeID: 114
      customType: 0
      isPPtrCurve: 1
    pptrCurveMapping:
    - {fileID: 1945620462591923343, guid: 4484be0bc3bcf46cc9f62e3a8b9e01a5, type: 3}
    - {fileID: 5476224838214924216, guid: 4484be0bc3bcf46cc9f62e3a8b9e01a5, type: 3}
    - {fileID: -5173479724605356323, guid: 4484be0bc3bcf46cc9f62e3a8b9e01a5, type: 3}
    - {fileID: 470904877429307043, guid: 4484be0bc3bcf46cc9f62e3a8b9e01a5, type: 3}
    - {fileID: -3465012964444801940, guid: 4484be0bc3bcf46cc9f62e3a8b9e01a5, type: 3}
    - {fileID: 7379147243802743604, guid: 4484be0bc3bcf46cc9f62e3a8b9e01a5, type: 3}
    - {fileID: -4445640994417698988, guid: 4484be0bc3bcf46cc9f62e3a8b9e01a5, type: 3}
    - {fileID: 143105990446924323, guid: 4484be0bc3bcf46cc9f62e3a8b9e01a5, type: 3}
    - {fileID: 3727391613981281552, guid: 4484be0bc3bcf46cc9f62e3a8b9e01a5, type: 3}
    - {fileID: 7978095280740581566, guid: 4484be0bc3bcf46cc9f62e3a8b9e01a5, type: 3}
    - {fileID: -5770366577430526078, guid: 4484be0bc3bcf46cc9f62e3a8b9e01a5, type: 3}
    - {fileID: 279668036917202020, guid: 4484be0bc3bcf46cc9f62e3a8b9e01a5, type: 3}
    - {fileID: -2480511493026923853, guid: 4484be0bc3bcf46cc9f62e3a8b9e01a5, type: 3}
    - {fileID: -1660702663231604186, guid: 4484be0bc3bcf46cc9f62e3a8b9e01a5, type: 3}
    - {fileID: 2094484966192665706, guid: 4484be0bc3bcf46cc9f62e3a8b9e01a5, type: 3}
    - {fileID: -4207070083975202936, guid: 4484be0bc3bcf46cc9f62e3a8b9e01a5, type: 3}
    - {fileID: -6609651229791069894, guid: 4484be0bc3bcf46cc9f62e3a8b9e01a5, type: 3}
    - {fileID: 7046474644749199770, guid: 4484be0bc3bcf46cc9f62e3a8b9e01a5, type: 3}
    - {fileID: -818407428134138652, guid: 4484be0bc3bcf46cc9f62e3a8b9e01a5, type: 3}
    - {fileID: 7912270396289993490, guid: 4484be0bc3bcf46cc9f62e3a8b9e01a5, type: 3}
    - {fileID: 871810357155842129, guid: 4484be0bc3bcf46cc9f62e3a8b9e01a5, type: 3}
    - {fileID: -8054002976504568432, guid: 4484be0bc3bcf46cc9f62e3a8b9e01a5, type: 3}
    - {fileID: -4206563307192177401, guid: 4484be0bc3bcf46cc9f62e3a8b9e01a5, type: 3}
    - {fileID: -5764769124902097521, guid: 4484be0bc3bcf46cc9f62e3a8b9e01a5, type: 3}
    - {fileID: 1945620462591923343, guid: 4484be0bc3bcf46cc9f62e3a8b9e01a5, type: 3}
    - {fileID: 5476224838214924216, guid: 4484be0bc3bcf46cc9f62e3a8b9e01a5, type: 3}
    - {fileID: -5173479724605356323, guid: 4484be0bc3bcf46cc9f62e3a8b9e01a5, type: 3}
    - {fileID: 470904877429307043, guid: 4484be0bc3bcf46cc9f62e3a8b9e01a5, type: 3}
    - {fileID: -3465012964444801940, guid: 4484be0bc3bcf46cc9f62e3a8b9e01a5, type: 3}
    - {fileID: 7379147243802743604, guid: 4484be0bc3bcf46cc9f62e3a8b9e01a5, type: 3}
    - {fileID: -4445640994417698988, guid: 4484be0bc3bcf46cc9f62e3a8b9e01a5, type: 3}
    - {fileID: 143105990446924323, guid: 4484be0bc3bcf46cc9f62e3a8b9e01a5, type: 3}
    - {fileID: 3727391613981281552, guid: 4484be0bc3bcf46cc9f62e3a8b9e01a5, type: 3}
    - {fileID: 7978095280740581566, guid: 4484be0bc3bcf46cc9f62e3a8b9e01a5, type: 3}
    - {fileID: -5770366577430526078, guid: 4484be0bc3bcf46cc9f62e3a8b9e01a5, type: 3}
    - {fileID: 279668036917202020, guid: 4484be0bc3bcf46cc9f62e3a8b9e01a5, type: 3}
    - {fileID: -2480511493026923853, guid: 4484be0bc3bcf46cc9f62e3a8b9e01a5, type: 3}
    - {fileID: -1660702663231604186, guid: 4484be0bc3bcf46cc9f62e3a8b9e01a5, type: 3}
    - {fileID: 2094484966192665706, guid: 4484be0bc3bcf46cc9f62e3a8b9e01a5, type: 3}
    - {fileID: -4207070083975202936, guid: 4484be0bc3bcf46cc9f62e3a8b9e01a5, type: 3}
    - {fileID: -6609651229791069894, guid: 4484be0bc3bcf46cc9f62e3a8b9e01a5, type: 3}
    - {fileID: 7046474644749199770, guid: 4484be0bc3bcf46cc9f62e3a8b9e01a5, type: 3}
    - {fileID: -818407428134138652, guid: 4484be0bc3bcf46cc9f62e3a8b9e01a5, type: 3}
    - {fileID: 7912270396289993490, guid: 4484be0bc3bcf46cc9f62e3a8b9e01a5, type: 3}
    - {fileID: 871810357155842129, guid: 4484be0bc3bcf46cc9f62e3a8b9e01a5, type: 3}
    - {fileID: -8054002976504568432, guid: 4484be0bc3bcf46cc9f62e3a8b9e01a5, type: 3}
    - {fileID: -4206563307192177401, guid: 4484be0bc3bcf46cc9f62e3a8b9e01a5, type: 3}
    - {fileID: -5764769124902097521, guid: 4484be0bc3bcf46cc9f62e3a8b9e01a5, type: 3}
    - {fileID: 5476224838214924216, guid: 4484be0bc3bcf46cc9f62e3a8b9e01a5, type: 3}
  m_AnimationClipSettings:
    serializedVersion: 2
    m_AdditiveReferencePoseClip: {fileID: 0}
    m_AdditiveReferencePoseTime: 0
    m_StartTime: 0
    m_StopTime: 1.0166667
    m_OrientationOffsetY: 0
    m_Level: 0
    m_CycleOffset: 0
    m_HasAdditiveReferencePose: 0
    m_LoopTime: 1
    m_LoopBlend: 0
    m_LoopBlendOrientation: 0
    m_LoopBlendPositionY: 0
    m_LoopBlendPositionXZ: 0
    m_KeepOriginalOrientation: 0
    m_KeepOriginalPositionY: 1
    m_KeepOriginalPositionXZ: 0
    m_HeightFromFeet: 0
    m_Mirror: 0
  m_EditorCurves: []
  m_EulerEditorCurves: []
  m_HasGenericRootTransform: 0
  m_HasMotionFloatCurves: 0
  m_Events: []
